%YAML 1.1
%TAG !u! tag:unity3d.com,2011:
--- !u!1 &5109358426806172930
GameObject:
  m_ObjectHideFlags: 0
  m_CorrespondingSourceObject: {fileID: 0}
  m_PrefabInstance: {fileID: 0}
  m_PrefabAsset: {fileID: 0}
  serializedVersion: 6
  m_Component:
  - component: {fileID: 5109358426806172936}
  - component: {fileID: 5109358426806172937}
  - component: {fileID: 5109358426806172934}
  - component: {fileID: 5109358426806172935}
  - component: {fileID: 5109358426806172932}
  - component: {fileID: 5109358426806172933}
  m_Layer: 0
  m_Name: Shield Variant
  m_TagString: Untagged
  m_Icon: {fileID: 0}
  m_NavMeshLayer: 0
  m_StaticEditorFlags: 0
  m_IsActive: 1
--- !u!4 &5109358426806172936
Transform:
  m_ObjectHideFlags: 0
  m_CorrespondingSourceObject: {fileID: 0}
  m_PrefabInstance: {fileID: 0}
  m_PrefabAsset: {fileID: 0}
  m_GameObject: {fileID: 5109358426806172930}
  m_LocalRotation: {x: 0.7071068, y: 0, z: 0, w: 0.7071068}
  m_LocalPosition: {x: -7.899637, y: 3, z: 15.514}
  m_LocalScale: {x: 1, y: 1, z: 1}
  m_ConstrainProportionsScale: 0
  m_Children: []
  m_Father: {fileID: 0}
  m_RootOrder: 0
  m_LocalEulerAnglesHint: {x: 90, y: 0, z: 0}
--- !u!114 &5109358426806172937
MonoBehaviour:
  m_ObjectHideFlags: 0
  m_CorrespondingSourceObject: {fileID: 0}
  m_PrefabInstance: {fileID: 0}
  m_PrefabAsset: {fileID: 0}
  m_GameObject: {fileID: 5109358426806172930}
  m_Enabled: 1
  m_EditorHideFlags: 0
  m_Script: {fileID: 11500000, guid: 8233d90336aea43098adf6dbabd606a2, type: 3}
  m_Name: 
  m_EditorClassIdentifier: 
  m_MeshFormatVersion: 2
  m_Faces:
  - m_Indexes: 000000000100000002000000010000000300000002000000
    m_SmoothingGroup: 1
    m_Uv:
      m_UseWorldSpace: 0
      m_FlipU: 0
      m_FlipV: 0
      m_SwapUV: 0
      m_Fill: 1
      m_Scale: {x: 1, y: 1}
      m_Offset: {x: 0, y: 0}
      m_Rotation: 0
      m_Anchor: 9
    m_Material: {fileID: 0}
    m_SubmeshIndex: 0
    m_ManualUV: 0
    elementGroup: -1
    m_TextureGroup: -1
  - m_Indexes: 040000000500000006000000050000000700000006000000
    m_SmoothingGroup: 1
    m_Uv:
      m_UseWorldSpace: 0
      m_FlipU: 0
      m_FlipV: 0
      m_SwapUV: 0
      m_Fill: 1
      m_Scale: {x: 1, y: 1}
      m_Offset: {x: 0, y: 0}
      m_Rotation: 0
      m_Anchor: 9
    m_Material: {fileID: 0}
    m_SubmeshIndex: 0
    m_ManualUV: 0
    elementGroup: -1
    m_TextureGroup: -1
  - m_Indexes: 08000000090000000a000000090000000b0000000a000000
    m_SmoothingGroup: 1
    m_Uv:
      m_UseWorldSpace: 0
      m_FlipU: 0
      m_FlipV: 0
      m_SwapUV: 0
      m_Fill: 1
      m_Scale: {x: 1, y: 1}
      m_Offset: {x: 0, y: 0}
      m_Rotation: 0
      m_Anchor: 9
    m_Material: {fileID: 0}
    m_SubmeshIndex: 0
    m_ManualUV: 0
    elementGroup: -1
    m_TextureGroup: -1
  - m_Indexes: 0c0000000d0000000e0000000d0000000f0000000e000000
    m_SmoothingGroup: 1
    m_Uv:
      m_UseWorldSpace: 0
      m_FlipU: 0
      m_FlipV: 0
      m_SwapUV: 0
      m_Fill: 1
      m_Scale: {x: 1, y: 1}
      m_Offset: {x: 0, y: 0}
      m_Rotation: 0
      m_Anchor: 9
    m_Material: {fileID: 0}
    m_SubmeshIndex: 0
    m_ManualUV: 0
    elementGroup: -1
    m_TextureGroup: -1
  - m_Indexes: 100000001100000012000000110000001300000012000000
    m_SmoothingGroup: 1
    m_Uv:
      m_UseWorldSpace: 0
      m_FlipU: 0
      m_FlipV: 0
      m_SwapUV: 0
      m_Fill: 1
      m_Scale: {x: 1, y: 1}
      m_Offset: {x: 0, y: 0}
      m_Rotation: 0
      m_Anchor: 9
    m_Material: {fileID: 0}
    m_SubmeshIndex: 0
    m_ManualUV: 0
    elementGroup: -1
    m_TextureGroup: -1
  - m_Indexes: 140000001500000016000000150000001700000016000000
    m_SmoothingGroup: 1
    m_Uv:
      m_UseWorldSpace: 0
      m_FlipU: 0
      m_FlipV: 0
      m_SwapUV: 0
      m_Fill: 1
      m_Scale: {x: 1, y: 1}
      m_Offset: {x: 0, y: 0}
      m_Rotation: 0
      m_Anchor: 9
    m_Material: {fileID: 0}
    m_SubmeshIndex: 0
    m_ManualUV: 0
    elementGroup: -1
    m_TextureGroup: -1
  - m_Indexes: 18000000190000001a000000190000001b0000001a000000
    m_SmoothingGroup: 1
    m_Uv:
      m_UseWorldSpace: 0
      m_FlipU: 0
      m_FlipV: 0
      m_SwapUV: 0
      m_Fill: 1
      m_Scale: {x: 1, y: 1}
      m_Offset: {x: 0, y: 0}
      m_Rotation: 0
      m_Anchor: 9
    m_Material: {fileID: 0}
    m_SubmeshIndex: 0
    m_ManualUV: 0
    elementGroup: -1
    m_TextureGroup: -1
  - m_Indexes: 1c0000001d0000001e0000001d0000001f0000001e000000
    m_SmoothingGroup: 1
    m_Uv:
      m_UseWorldSpace: 0
      m_FlipU: 0
      m_FlipV: 0
      m_SwapUV: 0
      m_Fill: 1
      m_Scale: {x: 1, y: 1}
      m_Offset: {x: 0, y: 0}
      m_Rotation: 0
      m_Anchor: 9
    m_Material: {fileID: 0}
    m_SubmeshIndex: 0
    m_ManualUV: 0
    elementGroup: -1
    m_TextureGroup: -1
  - m_Indexes: 200000002100000022000000210000002300000022000000
    m_SmoothingGroup: 1
    m_Uv:
      m_UseWorldSpace: 0
      m_FlipU: 0
      m_FlipV: 0
      m_SwapUV: 0
      m_Fill: 1
      m_Scale: {x: 1, y: 1}
      m_Offset: {x: 0, y: 0}
      m_Rotation: 0
      m_Anchor: 9
    m_Material: {fileID: 0}
    m_SubmeshIndex: 0
    m_ManualUV: 0
    elementGroup: -1
    m_TextureGroup: -1
  - m_Indexes: 240000002500000026000000250000002700000026000000
    m_SmoothingGroup: 1
    m_Uv:
      m_UseWorldSpace: 0
      m_FlipU: 0
      m_FlipV: 0
      m_SwapUV: 0
      m_Fill: 1
      m_Scale: {x: 1, y: 1}
      m_Offset: {x: 0, y: 0}
      m_Rotation: 0
      m_Anchor: 9
    m_Material: {fileID: 0}
    m_SubmeshIndex: 0
    m_ManualUV: 0
    elementGroup: -1
    m_TextureGroup: -1
  - m_Indexes: 28000000290000002a000000290000002b0000002a000000
    m_SmoothingGroup: 1
    m_Uv:
      m_UseWorldSpace: 0
      m_FlipU: 0
      m_FlipV: 0
      m_SwapUV: 0
      m_Fill: 1
      m_Scale: {x: 1, y: 1}
      m_Offset: {x: 0, y: 0}
      m_Rotation: 0
      m_Anchor: 9
    m_Material: {fileID: 0}
    m_SubmeshIndex: 0
    m_ManualUV: 0
    elementGroup: -1
    m_TextureGroup: -1
  - m_Indexes: 2c0000002d0000002e0000002d0000002f0000002e000000
    m_SmoothingGroup: 1
    m_Uv:
      m_UseWorldSpace: 0
      m_FlipU: 0
      m_FlipV: 0
      m_SwapUV: 0
      m_Fill: 1
      m_Scale: {x: 1, y: 1}
      m_Offset: {x: 0, y: 0}
      m_Rotation: 0
      m_Anchor: 9
    m_Material: {fileID: 0}
    m_SubmeshIndex: 0
    m_ManualUV: 0
    elementGroup: -1
    m_TextureGroup: -1
  - m_Indexes: 300000003100000032000000310000003300000032000000
    m_SmoothingGroup: 1
    m_Uv:
      m_UseWorldSpace: 0
      m_FlipU: 0
      m_FlipV: 0
      m_SwapUV: 0
      m_Fill: 1
      m_Scale: {x: 1, y: 1}
      m_Offset: {x: 0, y: 0}
      m_Rotation: 0
      m_Anchor: 9
    m_Material: {fileID: 0}
    m_SubmeshIndex: 0
    m_ManualUV: 0
    elementGroup: -1
    m_TextureGroup: -1
  - m_Indexes: 340000003500000036000000350000003700000036000000
    m_SmoothingGroup: 1
    m_Uv:
      m_UseWorldSpace: 0
      m_FlipU: 0
      m_FlipV: 0
      m_SwapUV: 0
      m_Fill: 1
      m_Scale: {x: 1, y: 1}
      m_Offset: {x: 0, y: 0}
      m_Rotation: 0
      m_Anchor: 9
    m_Material: {fileID: 0}
    m_SubmeshIndex: 0
    m_ManualUV: 0
    elementGroup: -1
    m_TextureGroup: -1
  - m_Indexes: 38000000390000003a000000390000003b0000003a000000
    m_SmoothingGroup: 1
    m_Uv:
      m_UseWorldSpace: 0
      m_FlipU: 0
      m_FlipV: 0
      m_SwapUV: 0
      m_Fill: 1
      m_Scale: {x: 1, y: 1}
      m_Offset: {x: 0, y: 0}
      m_Rotation: 0
      m_Anchor: 9
    m_Material: {fileID: 0}
    m_SubmeshIndex: 0
    m_ManualUV: 0
    elementGroup: -1
    m_TextureGroup: -1
  - m_Indexes: 3c0000003d0000003e0000003d0000003f0000003e000000
    m_SmoothingGroup: 1
    m_Uv:
      m_UseWorldSpace: 0
      m_FlipU: 0
      m_FlipV: 0
      m_SwapUV: 0
      m_Fill: 1
      m_Scale: {x: 1, y: 1}
      m_Offset: {x: 0, y: 0}
      m_Rotation: 0
      m_Anchor: 9
    m_Material: {fileID: 0}
    m_SubmeshIndex: 0
    m_ManualUV: 0
    elementGroup: -1
    m_TextureGroup: -1
  - m_Indexes: 400000004100000042000000410000004300000042000000
    m_SmoothingGroup: 1
    m_Uv:
      m_UseWorldSpace: 0
      m_FlipU: 0
      m_FlipV: 0
      m_SwapUV: 0
      m_Fill: 1
      m_Scale: {x: 1, y: 1}
      m_Offset: {x: 0, y: 0}
      m_Rotation: 0
      m_Anchor: 9
    m_Material: {fileID: 0}
    m_SubmeshIndex: 0
    m_ManualUV: 0
    elementGroup: -1
    m_TextureGroup: -1
  - m_Indexes: 440000004500000046000000450000004700000046000000
    m_SmoothingGroup: 1
    m_Uv:
      m_UseWorldSpace: 0
      m_FlipU: 0
      m_FlipV: 0
      m_SwapUV: 0
      m_Fill: 1
      m_Scale: {x: 1, y: 1}
      m_Offset: {x: 0, y: 0}
      m_Rotation: 0
      m_Anchor: 9
    m_Material: {fileID: 0}
    m_SubmeshIndex: 0
    m_ManualUV: 0
    elementGroup: -1
    m_TextureGroup: -1
  - m_Indexes: 48000000490000004a000000490000004b0000004a000000
    m_SmoothingGroup: 1
    m_Uv:
      m_UseWorldSpace: 0
      m_FlipU: 0
      m_FlipV: 0
      m_SwapUV: 0
      m_Fill: 1
      m_Scale: {x: 1, y: 1}
      m_Offset: {x: 0, y: 0}
      m_Rotation: 0
      m_Anchor: 9
    m_Material: {fileID: 0}
    m_SubmeshIndex: 0
    m_ManualUV: 0
    elementGroup: -1
    m_TextureGroup: -1
  - m_Indexes: 4c0000004d0000004e0000004d0000004f0000004e000000
    m_SmoothingGroup: 1
    m_Uv:
      m_UseWorldSpace: 0
      m_FlipU: 0
      m_FlipV: 0
      m_SwapUV: 0
      m_Fill: 1
      m_Scale: {x: 1, y: 1}
      m_Offset: {x: 0, y: 0}
      m_Rotation: 0
      m_Anchor: 9
    m_Material: {fileID: 0}
    m_SubmeshIndex: 0
    m_ManualUV: 0
    elementGroup: -1
    m_TextureGroup: -1
  - m_Indexes: 500000005100000052000000510000005300000052000000
    m_SmoothingGroup: 1
    m_Uv:
      m_UseWorldSpace: 0
      m_FlipU: 0
      m_FlipV: 0
      m_SwapUV: 0
      m_Fill: 1
      m_Scale: {x: 1, y: 1}
      m_Offset: {x: 0, y: 0}
      m_Rotation: 0
      m_Anchor: 9
    m_Material: {fileID: 0}
    m_SubmeshIndex: 0
    m_ManualUV: 0
    elementGroup: -1
    m_TextureGroup: -1
  - m_Indexes: 540000005500000056000000550000005700000056000000
    m_SmoothingGroup: 1
    m_Uv:
      m_UseWorldSpace: 0
      m_FlipU: 0
      m_FlipV: 0
      m_SwapUV: 0
      m_Fill: 1
      m_Scale: {x: 1, y: 1}
      m_Offset: {x: 0, y: 0}
      m_Rotation: 0
      m_Anchor: 9
    m_Material: {fileID: 0}
    m_SubmeshIndex: 0
    m_ManualUV: 0
    elementGroup: -1
    m_TextureGroup: -1
  - m_Indexes: 58000000590000005a000000590000005b0000005a000000
    m_SmoothingGroup: 1
    m_Uv:
      m_UseWorldSpace: 0
      m_FlipU: 0
      m_FlipV: 0
      m_SwapUV: 0
      m_Fill: 1
      m_Scale: {x: 1, y: 1}
      m_Offset: {x: 0, y: 0}
      m_Rotation: 0
      m_Anchor: 9
    m_Material: {fileID: 0}
    m_SubmeshIndex: 0
    m_ManualUV: 0
    elementGroup: -1
    m_TextureGroup: -1
  - m_Indexes: 5c0000005d0000005e0000005d0000005f0000005e000000
    m_SmoothingGroup: 1
    m_Uv:
      m_UseWorldSpace: 0
      m_FlipU: 0
      m_FlipV: 0
      m_SwapUV: 0
      m_Fill: 1
      m_Scale: {x: 1, y: 1}
      m_Offset: {x: 0, y: 0}
      m_Rotation: 0
      m_Anchor: 9
    m_Material: {fileID: 0}
    m_SubmeshIndex: 0
    m_ManualUV: 0
    elementGroup: -1
    m_TextureGroup: -1
  - m_Indexes: 600000006100000062000000610000006300000062000000
    m_SmoothingGroup: 1
    m_Uv:
      m_UseWorldSpace: 0
      m_FlipU: 0
      m_FlipV: 0
      m_SwapUV: 0
      m_Fill: 1
      m_Scale: {x: 1, y: 1}
      m_Offset: {x: 0, y: 0}
      m_Rotation: 0
      m_Anchor: 9
    m_Material: {fileID: 0}
    m_SubmeshIndex: 0
    m_ManualUV: 0
    elementGroup: -1
    m_TextureGroup: -1
  - m_Indexes: 640000006500000066000000650000006700000066000000
    m_SmoothingGroup: 1
    m_Uv:
      m_UseWorldSpace: 0
      m_FlipU: 0
      m_FlipV: 0
      m_SwapUV: 0
      m_Fill: 1
      m_Scale: {x: 1, y: 1}
      m_Offset: {x: 0, y: 0}
      m_Rotation: 0
      m_Anchor: 9
    m_Material: {fileID: 0}
    m_SubmeshIndex: 0
    m_ManualUV: 0
    elementGroup: -1
    m_TextureGroup: -1
  - m_Indexes: 68000000690000006a000000690000006b0000006a000000
    m_SmoothingGroup: 1
    m_Uv:
      m_UseWorldSpace: 0
      m_FlipU: 0
      m_FlipV: 0
      m_SwapUV: 0
      m_Fill: 1
      m_Scale: {x: 1, y: 1}
      m_Offset: {x: 0, y: 0}
      m_Rotation: 0
      m_Anchor: 9
    m_Material: {fileID: 0}
    m_SubmeshIndex: 0
    m_ManualUV: 0
    elementGroup: -1
    m_TextureGroup: -1
  - m_Indexes: 6c0000006d0000006e0000006d0000006f0000006e000000
    m_SmoothingGroup: 1
    m_Uv:
      m_UseWorldSpace: 0
      m_FlipU: 0
      m_FlipV: 0
      m_SwapUV: 0
      m_Fill: 1
      m_Scale: {x: 1, y: 1}
      m_Offset: {x: 0, y: 0}
      m_Rotation: 0
      m_Anchor: 9
    m_Material: {fileID: 0}
    m_SubmeshIndex: 0
    m_ManualUV: 0
    elementGroup: -1
    m_TextureGroup: -1
  - m_Indexes: 700000007100000072000000710000007300000072000000
    m_SmoothingGroup: 1
    m_Uv:
      m_UseWorldSpace: 0
      m_FlipU: 0
      m_FlipV: 0
      m_SwapUV: 0
      m_Fill: 1
      m_Scale: {x: 1, y: 1}
      m_Offset: {x: 0, y: 0}
      m_Rotation: 0
      m_Anchor: 9
    m_Material: {fileID: 0}
    m_SubmeshIndex: 0
    m_ManualUV: 0
    elementGroup: -1
    m_TextureGroup: -1
  - m_Indexes: 740000007500000076000000750000007700000076000000
    m_SmoothingGroup: 1
    m_Uv:
      m_UseWorldSpace: 0
      m_FlipU: 0
      m_FlipV: 0
      m_SwapUV: 0
      m_Fill: 1
      m_Scale: {x: 1, y: 1}
      m_Offset: {x: 0, y: 0}
      m_Rotation: 0
      m_Anchor: 9
    m_Material: {fileID: 0}
    m_SubmeshIndex: 0
    m_ManualUV: 0
    elementGroup: -1
    m_TextureGroup: -1
  - m_Indexes: 78000000790000007a000000790000007b0000007a000000
    m_SmoothingGroup: 1
    m_Uv:
      m_UseWorldSpace: 0
      m_FlipU: 0
      m_FlipV: 0
      m_SwapUV: 0
      m_Fill: 1
      m_Scale: {x: 1, y: 1}
      m_Offset: {x: 0, y: 0}
      m_Rotation: 0
      m_Anchor: 9
    m_Material: {fileID: 0}
    m_SubmeshIndex: 0
    m_ManualUV: 0
    elementGroup: -1
    m_TextureGroup: -1
  - m_Indexes: 7c0000007d0000007e0000007d0000007f0000007e000000
    m_SmoothingGroup: 1
    m_Uv:
      m_UseWorldSpace: 0
      m_FlipU: 0
      m_FlipV: 0
      m_SwapUV: 0
      m_Fill: 1
      m_Scale: {x: 1, y: 1}
      m_Offset: {x: 0, y: 0}
      m_Rotation: 0
      m_Anchor: 9
    m_Material: {fileID: 0}
    m_SubmeshIndex: 0
    m_ManualUV: 0
    elementGroup: -1
    m_TextureGroup: -1
  - m_Indexes: 800000008100000082000000810000008300000082000000
    m_SmoothingGroup: 1
    m_Uv:
      m_UseWorldSpace: 0
      m_FlipU: 0
      m_FlipV: 0
      m_SwapUV: 0
      m_Fill: 1
      m_Scale: {x: 1, y: 1}
      m_Offset: {x: 0, y: 0}
      m_Rotation: 0
      m_Anchor: 9
    m_Material: {fileID: 0}
    m_SubmeshIndex: 0
    m_ManualUV: 0
    elementGroup: -1
    m_TextureGroup: -1
  - m_Indexes: 840000008500000086000000850000008700000086000000
    m_SmoothingGroup: 1
    m_Uv:
      m_UseWorldSpace: 0
      m_FlipU: 0
      m_FlipV: 0
      m_SwapUV: 0
      m_Fill: 1
      m_Scale: {x: 1, y: 1}
      m_Offset: {x: 0, y: 0}
      m_Rotation: 0
      m_Anchor: 9
    m_Material: {fileID: 0}
    m_SubmeshIndex: 0
    m_ManualUV: 0
    elementGroup: -1
    m_TextureGroup: -1
  - m_Indexes: 88000000890000008a000000890000008b0000008a000000
    m_SmoothingGroup: 1
    m_Uv:
      m_UseWorldSpace: 0
      m_FlipU: 0
      m_FlipV: 0
      m_SwapUV: 0
      m_Fill: 1
      m_Scale: {x: 1, y: 1}
      m_Offset: {x: 0, y: 0}
      m_Rotation: 0
      m_Anchor: 9
    m_Material: {fileID: 0}
    m_SubmeshIndex: 0
    m_ManualUV: 0
    elementGroup: -1
    m_TextureGroup: -1
  - m_Indexes: 8c0000008d0000008e0000008d0000008f0000008e000000
    m_SmoothingGroup: 1
    m_Uv:
      m_UseWorldSpace: 0
      m_FlipU: 0
      m_FlipV: 0
      m_SwapUV: 0
      m_Fill: 1
      m_Scale: {x: 1, y: 1}
      m_Offset: {x: 0, y: 0}
      m_Rotation: 0
      m_Anchor: 9
    m_Material: {fileID: 0}
    m_SubmeshIndex: 0
    m_ManualUV: 0
    elementGroup: -1
    m_TextureGroup: -1
  - m_Indexes: 900000009100000092000000910000009300000092000000
    m_SmoothingGroup: 1
    m_Uv:
      m_UseWorldSpace: 0
      m_FlipU: 0
      m_FlipV: 0
      m_SwapUV: 0
      m_Fill: 1
      m_Scale: {x: 1, y: 1}
      m_Offset: {x: 0, y: 0}
      m_Rotation: 0
      m_Anchor: 9
    m_Material: {fileID: 0}
    m_SubmeshIndex: 0
    m_ManualUV: 0
    elementGroup: -1
    m_TextureGroup: -1
  - m_Indexes: 940000009500000096000000950000009700000096000000
    m_SmoothingGroup: 1
    m_Uv:
      m_UseWorldSpace: 0
      m_FlipU: 0
      m_FlipV: 0
      m_SwapUV: 0
      m_Fill: 1
      m_Scale: {x: 1, y: 1}
      m_Offset: {x: 0, y: 0}
      m_Rotation: 0
      m_Anchor: 9
    m_Material: {fileID: 0}
    m_SubmeshIndex: 0
    m_ManualUV: 0
    elementGroup: -1
    m_TextureGroup: -1
  - m_Indexes: 98000000990000009a000000990000009b0000009a000000
    m_SmoothingGroup: 1
    m_Uv:
      m_UseWorldSpace: 0
      m_FlipU: 0
      m_FlipV: 0
      m_SwapUV: 0
      m_Fill: 1
      m_Scale: {x: 1, y: 1}
      m_Offset: {x: 0, y: 0}
      m_Rotation: 0
      m_Anchor: 9
    m_Material: {fileID: 0}
    m_SubmeshIndex: 0
    m_ManualUV: 0
    elementGroup: -1
    m_TextureGroup: -1
  - m_Indexes: 9c0000009d0000009e0000009d0000009f0000009e000000
    m_SmoothingGroup: 1
    m_Uv:
      m_UseWorldSpace: 0
      m_FlipU: 0
      m_FlipV: 0
      m_SwapUV: 0
      m_Fill: 1
      m_Scale: {x: 1, y: 1}
      m_Offset: {x: 0, y: 0}
      m_Rotation: 0
      m_Anchor: 9
    m_Material: {fileID: 0}
    m_SubmeshIndex: 0
    m_ManualUV: 0
    elementGroup: -1
    m_TextureGroup: -1
  - m_Indexes: a0000000a1000000a2000000a1000000a3000000a2000000
    m_SmoothingGroup: 0
    m_Uv:
      m_UseWorldSpace: 0
      m_FlipU: 0
      m_FlipV: 0
      m_SwapUV: 0
      m_Fill: 1
      m_Scale: {x: 1, y: 1}
      m_Offset: {x: 0, y: 0}
      m_Rotation: 0
      m_Anchor: 9
    m_Material: {fileID: 0}
    m_SubmeshIndex: 0
    m_ManualUV: 0
    elementGroup: -1
    m_TextureGroup: -1
  - m_Indexes: a4000000a5000000a6000000a5000000a7000000a6000000
    m_SmoothingGroup: 0
    m_Uv:
      m_UseWorldSpace: 0
      m_FlipU: 0
      m_FlipV: 0
      m_SwapUV: 0
      m_Fill: 1
      m_Scale: {x: 1, y: 1}
      m_Offset: {x: 0, y: 0}
      m_Rotation: 0
      m_Anchor: 9
    m_Material: {fileID: 0}
    m_SubmeshIndex: 0
    m_ManualUV: 0
    elementGroup: -1
    m_TextureGroup: -1
  - m_Indexes: a8000000a9000000aa000000a9000000ab000000aa000000
    m_SmoothingGroup: 0
    m_Uv:
      m_UseWorldSpace: 0
      m_FlipU: 0
      m_FlipV: 0
      m_SwapUV: 0
      m_Fill: 1
      m_Scale: {x: 1, y: 1}
      m_Offset: {x: 0, y: 0}
      m_Rotation: 0
      m_Anchor: 9
    m_Material: {fileID: 0}
    m_SubmeshIndex: 0
    m_ManualUV: 0
    elementGroup: -1
    m_TextureGroup: -1
  - m_Indexes: ac000000ad000000ae000000ad000000af000000ae000000
    m_SmoothingGroup: 0
    m_Uv:
      m_UseWorldSpace: 0
      m_FlipU: 0
      m_FlipV: 0
      m_SwapUV: 0
      m_Fill: 1
      m_Scale: {x: 1, y: 1}
      m_Offset: {x: 0, y: 0}
      m_Rotation: 0
      m_Anchor: 9
    m_Material: {fileID: 0}
    m_SubmeshIndex: 0
    m_ManualUV: 0
    elementGroup: -1
    m_TextureGroup: -1
  - m_Indexes: b0000000b1000000b2000000b1000000b3000000b2000000
    m_SmoothingGroup: 0
    m_Uv:
      m_UseWorldSpace: 0
      m_FlipU: 0
      m_FlipV: 0
      m_SwapUV: 0
      m_Fill: 1
      m_Scale: {x: 1, y: 1}
      m_Offset: {x: 0, y: 0}
      m_Rotation: 0
      m_Anchor: 9
    m_Material: {fileID: 0}
    m_SubmeshIndex: 0
    m_ManualUV: 0
    elementGroup: -1
    m_TextureGroup: -1
  - m_Indexes: b4000000b5000000b6000000b5000000b7000000b6000000
    m_SmoothingGroup: 0
    m_Uv:
      m_UseWorldSpace: 0
      m_FlipU: 0
      m_FlipV: 0
      m_SwapUV: 0
      m_Fill: 1
      m_Scale: {x: 1, y: 1}
      m_Offset: {x: 0, y: 0}
      m_Rotation: 0
      m_Anchor: 9
    m_Material: {fileID: 0}
    m_SubmeshIndex: 0
    m_ManualUV: 0
    elementGroup: -1
    m_TextureGroup: -1
  - m_Indexes: b8000000b9000000ba000000b9000000bb000000ba000000
    m_SmoothingGroup: 0
    m_Uv:
      m_UseWorldSpace: 0
      m_FlipU: 0
      m_FlipV: 0
      m_SwapUV: 0
      m_Fill: 1
      m_Scale: {x: 1, y: 1}
      m_Offset: {x: 0, y: 0}
      m_Rotation: 0
      m_Anchor: 9
    m_Material: {fileID: 0}
    m_SubmeshIndex: 0
    m_ManualUV: 0
    elementGroup: -1
    m_TextureGroup: -1
  - m_Indexes: bc000000bd000000be000000bd000000bf000000be000000
    m_SmoothingGroup: 0
    m_Uv:
      m_UseWorldSpace: 0
      m_FlipU: 0
      m_FlipV: 0
      m_SwapUV: 0
      m_Fill: 1
      m_Scale: {x: 1, y: 1}
      m_Offset: {x: 0, y: 0}
      m_Rotation: 0
      m_Anchor: 9
    m_Material: {fileID: 0}
    m_SubmeshIndex: 0
    m_ManualUV: 0
    elementGroup: -1
    m_TextureGroup: -1
  - m_Indexes: c0000000c1000000c2000000c1000000c3000000c2000000
    m_SmoothingGroup: 0
    m_Uv:
      m_UseWorldSpace: 0
      m_FlipU: 0
      m_FlipV: 0
      m_SwapUV: 0
      m_Fill: 1
      m_Scale: {x: 1, y: 1}
      m_Offset: {x: 0, y: 0}
      m_Rotation: 0
      m_Anchor: 9
    m_Material: {fileID: 0}
    m_SubmeshIndex: 0
    m_ManualUV: 0
    elementGroup: -1
    m_TextureGroup: -1
  - m_Indexes: c4000000c5000000c6000000c5000000c7000000c6000000
    m_SmoothingGroup: 0
    m_Uv:
      m_UseWorldSpace: 0
      m_FlipU: 0
      m_FlipV: 0
      m_SwapUV: 0
      m_Fill: 1
      m_Scale: {x: 1, y: 1}
      m_Offset: {x: 0, y: 0}
      m_Rotation: 0
      m_Anchor: 9
    m_Material: {fileID: 0}
    m_SubmeshIndex: 0
    m_ManualUV: 0
    elementGroup: -1
    m_TextureGroup: -1
  - m_Indexes: c8000000c9000000ca000000c9000000cb000000ca000000
    m_SmoothingGroup: 0
    m_Uv:
      m_UseWorldSpace: 0
      m_FlipU: 0
      m_FlipV: 0
      m_SwapUV: 0
      m_Fill: 1
      m_Scale: {x: 1, y: 1}
      m_Offset: {x: 0, y: 0}
      m_Rotation: 0
      m_Anchor: 9
    m_Material: {fileID: 0}
    m_SubmeshIndex: 0
    m_ManualUV: 0
    elementGroup: -1
    m_TextureGroup: -1
  - m_Indexes: cc000000cd000000ce000000cd000000cf000000ce000000
    m_SmoothingGroup: 0
    m_Uv:
      m_UseWorldSpace: 0
      m_FlipU: 0
      m_FlipV: 0
      m_SwapUV: 0
      m_Fill: 1
      m_Scale: {x: 1, y: 1}
      m_Offset: {x: 0, y: 0}
      m_Rotation: 0
      m_Anchor: 9
    m_Material: {fileID: 0}
    m_SubmeshIndex: 0
    m_ManualUV: 0
    elementGroup: -1
    m_TextureGroup: -1
  - m_Indexes: d0000000d1000000d2000000d1000000d3000000d2000000
    m_SmoothingGroup: 0
    m_Uv:
      m_UseWorldSpace: 0
      m_FlipU: 0
      m_FlipV: 0
      m_SwapUV: 0
      m_Fill: 1
      m_Scale: {x: 1, y: 1}
      m_Offset: {x: 0, y: 0}
      m_Rotation: 0
      m_Anchor: 9
    m_Material: {fileID: 0}
    m_SubmeshIndex: 0
    m_ManualUV: 0
    elementGroup: -1
    m_TextureGroup: -1
  - m_Indexes: d4000000d5000000d6000000d5000000d7000000d6000000
    m_SmoothingGroup: 0
    m_Uv:
      m_UseWorldSpace: 0
      m_FlipU: 0
      m_FlipV: 0
      m_SwapUV: 0
      m_Fill: 1
      m_Scale: {x: 1, y: 1}
      m_Offset: {x: 0, y: 0}
      m_Rotation: 0
      m_Anchor: 9
    m_Material: {fileID: 0}
    m_SubmeshIndex: 0
    m_ManualUV: 0
    elementGroup: -1
    m_TextureGroup: -1
  - m_Indexes: d8000000d9000000da000000d9000000db000000da000000
    m_SmoothingGroup: 0
    m_Uv:
      m_UseWorldSpace: 0
      m_FlipU: 0
      m_FlipV: 0
      m_SwapUV: 0
      m_Fill: 1
      m_Scale: {x: 1, y: 1}
      m_Offset: {x: 0, y: 0}
      m_Rotation: 0
      m_Anchor: 9
    m_Material: {fileID: 0}
    m_SubmeshIndex: 0
    m_ManualUV: 0
    elementGroup: -1
    m_TextureGroup: -1
  - m_Indexes: dc000000dd000000de000000dd000000df000000de000000
    m_SmoothingGroup: 0
    m_Uv:
      m_UseWorldSpace: 0
      m_FlipU: 0
      m_FlipV: 0
      m_SwapUV: 0
      m_Fill: 1
      m_Scale: {x: 1, y: 1}
      m_Offset: {x: 0, y: 0}
      m_Rotation: 0
      m_Anchor: 9
    m_Material: {fileID: 0}
    m_SubmeshIndex: 0
    m_ManualUV: 0
    elementGroup: -1
    m_TextureGroup: -1
  - m_Indexes: e0000000e1000000e2000000e1000000e3000000e2000000
    m_SmoothingGroup: 0
    m_Uv:
      m_UseWorldSpace: 0
      m_FlipU: 0
      m_FlipV: 0
      m_SwapUV: 0
      m_Fill: 1
      m_Scale: {x: 1, y: 1}
      m_Offset: {x: 0, y: 0}
      m_Rotation: 0
      m_Anchor: 9
    m_Material: {fileID: 0}
    m_SubmeshIndex: 0
    m_ManualUV: 0
    elementGroup: -1
    m_TextureGroup: -1
  - m_Indexes: e4000000e5000000e6000000e5000000e7000000e6000000
    m_SmoothingGroup: 0
    m_Uv:
      m_UseWorldSpace: 0
      m_FlipU: 0
      m_FlipV: 0
      m_SwapUV: 0
      m_Fill: 1
      m_Scale: {x: 1, y: 1}
      m_Offset: {x: 0, y: 0}
      m_Rotation: 0
      m_Anchor: 9
    m_Material: {fileID: 0}
    m_SubmeshIndex: 0
    m_ManualUV: 0
    elementGroup: -1
    m_TextureGroup: -1
  - m_Indexes: e8000000e9000000ea000000e9000000eb000000ea000000
    m_SmoothingGroup: 0
    m_Uv:
      m_UseWorldSpace: 0
      m_FlipU: 0
      m_FlipV: 0
      m_SwapUV: 0
      m_Fill: 1
      m_Scale: {x: 1, y: 1}
      m_Offset: {x: 0, y: 0}
      m_Rotation: 0
      m_Anchor: 9
    m_Material: {fileID: 0}
    m_SubmeshIndex: 0
    m_ManualUV: 0
    elementGroup: -1
    m_TextureGroup: -1
  - m_Indexes: ec000000ed000000ee000000ed000000ef000000ee000000
    m_SmoothingGroup: 0
    m_Uv:
      m_UseWorldSpace: 0
      m_FlipU: 0
      m_FlipV: 0
      m_SwapUV: 0
      m_Fill: 1
      m_Scale: {x: 1, y: 1}
      m_Offset: {x: 0, y: 0}
      m_Rotation: 0
      m_Anchor: 9
    m_Material: {fileID: 0}
    m_SubmeshIndex: 0
    m_ManualUV: 0
    elementGroup: -1
    m_TextureGroup: -1
  - m_Indexes: f0000000f1000000f2000000f1000000f3000000f2000000
    m_SmoothingGroup: 0
    m_Uv:
      m_UseWorldSpace: 0
      m_FlipU: 0
      m_FlipV: 0
      m_SwapUV: 0
      m_Fill: 1
      m_Scale: {x: 1, y: 1}
      m_Offset: {x: 0, y: 0}
      m_Rotation: 0
      m_Anchor: 9
    m_Material: {fileID: 0}
    m_SubmeshIndex: 0
    m_ManualUV: 0
    elementGroup: -1
    m_TextureGroup: -1
  - m_Indexes: f4000000f5000000f6000000f5000000f7000000f6000000
    m_SmoothingGroup: 0
    m_Uv:
      m_UseWorldSpace: 0
      m_FlipU: 0
      m_FlipV: 0
      m_SwapUV: 0
      m_Fill: 1
      m_Scale: {x: 1, y: 1}
      m_Offset: {x: 0, y: 0}
      m_Rotation: 0
      m_Anchor: 9
    m_Material: {fileID: 0}
    m_SubmeshIndex: 0
    m_ManualUV: 0
    elementGroup: -1
    m_TextureGroup: -1
  - m_Indexes: f8000000f9000000fa000000f9000000fb000000fa000000
    m_SmoothingGroup: 0
    m_Uv:
      m_UseWorldSpace: 0
      m_FlipU: 0
      m_FlipV: 0
      m_SwapUV: 0
      m_Fill: 1
      m_Scale: {x: 1, y: 1}
      m_Offset: {x: 0, y: 0}
      m_Rotation: 0
      m_Anchor: 9
    m_Material: {fileID: 0}
    m_SubmeshIndex: 0
    m_ManualUV: 0
    elementGroup: -1
    m_TextureGroup: -1
  - m_Indexes: fc000000fd000000fe000000fd000000ff000000fe000000
    m_SmoothingGroup: 0
    m_Uv:
      m_UseWorldSpace: 0
      m_FlipU: 0
      m_FlipV: 0
      m_SwapUV: 0
      m_Fill: 1
      m_Scale: {x: 1, y: 1}
      m_Offset: {x: 0, y: 0}
      m_Rotation: 0
      m_Anchor: 9
    m_Material: {fileID: 0}
    m_SubmeshIndex: 0
    m_ManualUV: 0
    elementGroup: -1
    m_TextureGroup: -1
  - m_Indexes: 000100000101000002010000010100000301000002010000
    m_SmoothingGroup: 0
    m_Uv:
      m_UseWorldSpace: 0
      m_FlipU: 0
      m_FlipV: 0
      m_SwapUV: 0
      m_Fill: 1
      m_Scale: {x: 1, y: 1}
      m_Offset: {x: 0, y: 0}
      m_Rotation: 0
      m_Anchor: 9
    m_Material: {fileID: 0}
    m_SubmeshIndex: 0
    m_ManualUV: 0
    elementGroup: -1
    m_TextureGroup: -1
  - m_Indexes: 040100000501000006010000050100000701000006010000
    m_SmoothingGroup: 0
    m_Uv:
      m_UseWorldSpace: 0
      m_FlipU: 0
      m_FlipV: 0
      m_SwapUV: 0
      m_Fill: 1
      m_Scale: {x: 1, y: 1}
      m_Offset: {x: 0, y: 0}
      m_Rotation: 0
      m_Anchor: 9
    m_Material: {fileID: 0}
    m_SubmeshIndex: 0
    m_ManualUV: 0
    elementGroup: -1
    m_TextureGroup: -1
  - m_Indexes: 08010000090100000a010000090100000b0100000a010000
    m_SmoothingGroup: 0
    m_Uv:
      m_UseWorldSpace: 0
      m_FlipU: 0
      m_FlipV: 0
      m_SwapUV: 0
      m_Fill: 1
      m_Scale: {x: 1, y: 1}
      m_Offset: {x: 0, y: 0}
      m_Rotation: 0
      m_Anchor: 9
    m_Material: {fileID: 0}
    m_SubmeshIndex: 0
    m_ManualUV: 0
    elementGroup: -1
    m_TextureGroup: -1
  - m_Indexes: 0c0100000d0100000e0100000d0100000f0100000e010000
    m_SmoothingGroup: 0
    m_Uv:
      m_UseWorldSpace: 0
      m_FlipU: 0
      m_FlipV: 0
      m_SwapUV: 0
      m_Fill: 1
      m_Scale: {x: 1, y: 1}
      m_Offset: {x: 0, y: 0}
      m_Rotation: 0
      m_Anchor: 9
    m_Material: {fileID: 0}
    m_SubmeshIndex: 0
    m_ManualUV: 0
    elementGroup: -1
    m_TextureGroup: -1
  - m_Indexes: 100100001101000012010000110100001301000012010000
    m_SmoothingGroup: 0
    m_Uv:
      m_UseWorldSpace: 0
      m_FlipU: 0
      m_FlipV: 0
      m_SwapUV: 0
      m_Fill: 1
      m_Scale: {x: 1, y: 1}
      m_Offset: {x: 0, y: 0}
      m_Rotation: 0
      m_Anchor: 9
    m_Material: {fileID: 0}
    m_SubmeshIndex: 0
    m_ManualUV: 0
    elementGroup: -1
    m_TextureGroup: -1
  - m_Indexes: 140100001501000016010000150100001701000016010000
    m_SmoothingGroup: 0
    m_Uv:
      m_UseWorldSpace: 0
      m_FlipU: 0
      m_FlipV: 0
      m_SwapUV: 0
      m_Fill: 1
      m_Scale: {x: 1, y: 1}
      m_Offset: {x: 0, y: 0}
      m_Rotation: 0
      m_Anchor: 9
    m_Material: {fileID: 0}
    m_SubmeshIndex: 0
    m_ManualUV: 0
    elementGroup: -1
    m_TextureGroup: -1
  - m_Indexes: 18010000190100001a010000190100001b0100001a010000
    m_SmoothingGroup: 0
    m_Uv:
      m_UseWorldSpace: 0
      m_FlipU: 0
      m_FlipV: 0
      m_SwapUV: 0
      m_Fill: 1
      m_Scale: {x: 1, y: 1}
      m_Offset: {x: 0, y: 0}
      m_Rotation: 0
      m_Anchor: 9
    m_Material: {fileID: 0}
    m_SubmeshIndex: 0
    m_ManualUV: 0
    elementGroup: -1
    m_TextureGroup: -1
  - m_Indexes: 1c0100001d0100001e0100001d0100001f0100001e010000
    m_SmoothingGroup: 0
    m_Uv:
      m_UseWorldSpace: 0
      m_FlipU: 0
      m_FlipV: 0
      m_SwapUV: 0
      m_Fill: 1
      m_Scale: {x: 1, y: 1}
      m_Offset: {x: 0, y: 0}
      m_Rotation: 0
      m_Anchor: 9
    m_Material: {fileID: 0}
    m_SubmeshIndex: 0
    m_ManualUV: 0
    elementGroup: -1
    m_TextureGroup: -1
  - m_Indexes: 200100002101000022010000210100002301000022010000
    m_SmoothingGroup: 0
    m_Uv:
      m_UseWorldSpace: 0
      m_FlipU: 0
      m_FlipV: 0
      m_SwapUV: 0
      m_Fill: 1
      m_Scale: {x: 1, y: 1}
      m_Offset: {x: 0, y: 0}
      m_Rotation: 0
      m_Anchor: 9
    m_Material: {fileID: 0}
    m_SubmeshIndex: 0
    m_ManualUV: 0
    elementGroup: -1
    m_TextureGroup: -1
  - m_Indexes: 240100002501000026010000250100002701000026010000
    m_SmoothingGroup: 0
    m_Uv:
      m_UseWorldSpace: 0
      m_FlipU: 0
      m_FlipV: 0
      m_SwapUV: 0
      m_Fill: 1
      m_Scale: {x: 1, y: 1}
      m_Offset: {x: 0, y: 0}
      m_Rotation: 0
      m_Anchor: 9
    m_Material: {fileID: 0}
    m_SubmeshIndex: 0
    m_ManualUV: 0
    elementGroup: -1
    m_TextureGroup: -1
  - m_Indexes: 28010000290100002a010000290100002b0100002a010000
    m_SmoothingGroup: 0
    m_Uv:
      m_UseWorldSpace: 0
      m_FlipU: 0
      m_FlipV: 0
      m_SwapUV: 0
      m_Fill: 1
      m_Scale: {x: 1, y: 1}
      m_Offset: {x: 0, y: 0}
      m_Rotation: 0
      m_Anchor: 9
    m_Material: {fileID: 0}
    m_SubmeshIndex: 0
    m_ManualUV: 0
    elementGroup: -1
    m_TextureGroup: -1
  - m_Indexes: 2c0100002d0100002e0100002d0100002f0100002e010000
    m_SmoothingGroup: 0
    m_Uv:
      m_UseWorldSpace: 0
      m_FlipU: 0
      m_FlipV: 0
      m_SwapUV: 0
      m_Fill: 1
      m_Scale: {x: 1, y: 1}
      m_Offset: {x: 0, y: 0}
      m_Rotation: 0
      m_Anchor: 9
    m_Material: {fileID: 0}
    m_SubmeshIndex: 0
    m_ManualUV: 0
    elementGroup: -1
    m_TextureGroup: -1
  - m_Indexes: 300100003101000032010000310100003301000032010000
    m_SmoothingGroup: 0
    m_Uv:
      m_UseWorldSpace: 0
      m_FlipU: 0
      m_FlipV: 0
      m_SwapUV: 0
      m_Fill: 1
      m_Scale: {x: 1, y: 1}
      m_Offset: {x: 0, y: 0}
      m_Rotation: 0
      m_Anchor: 9
    m_Material: {fileID: 0}
    m_SubmeshIndex: 0
    m_ManualUV: 0
    elementGroup: -1
    m_TextureGroup: -1
  - m_Indexes: 340100003501000036010000350100003701000036010000
    m_SmoothingGroup: 0
    m_Uv:
      m_UseWorldSpace: 0
      m_FlipU: 0
      m_FlipV: 0
      m_SwapUV: 0
      m_Fill: 1
      m_Scale: {x: 1, y: 1}
      m_Offset: {x: 0, y: 0}
      m_Rotation: 0
      m_Anchor: 9
    m_Material: {fileID: 0}
    m_SubmeshIndex: 0
    m_ManualUV: 0
    elementGroup: -1
    m_TextureGroup: -1
  - m_Indexes: 38010000390100003a010000390100003b0100003a010000
    m_SmoothingGroup: 0
    m_Uv:
      m_UseWorldSpace: 0
      m_FlipU: 0
      m_FlipV: 0
      m_SwapUV: 0
      m_Fill: 1
      m_Scale: {x: 1, y: 1}
      m_Offset: {x: 0, y: 0}
      m_Rotation: 0
      m_Anchor: 9
    m_Material: {fileID: 0}
    m_SubmeshIndex: 0
    m_ManualUV: 0
    elementGroup: -1
    m_TextureGroup: -1
  - m_Indexes: 3c0100003d0100003e0100003d0100003f0100003e010000
    m_SmoothingGroup: 0
    m_Uv:
      m_UseWorldSpace: 0
      m_FlipU: 0
      m_FlipV: 0
      m_SwapUV: 0
      m_Fill: 1
      m_Scale: {x: 1, y: 1}
      m_Offset: {x: 0, y: 0}
      m_Rotation: 0
      m_Anchor: 9
    m_Material: {fileID: 0}
    m_SubmeshIndex: 0
    m_ManualUV: 0
    elementGroup: -1
    m_TextureGroup: -1
  m_SharedVertices:
  - m_Vertices: 0000000009000000a1000000a8000000
  - m_Vertices: 0100000098000000a000000039010000
  - m_Vertices: 020000000b000000a4000000ad000000
  - m_Vertices: 030000009a000000a50000003c010000
  - m_Vertices: 04000000050000000c0000000d00000014000000150000001c0000001d00000024000000250000002c0000002d00000034000000350000003c0000003d00000044000000450000004c0000004d00000054000000550000005c0000005d00000064000000650000006c0000006d00000074000000750000007c0000007d00000084000000850000008c0000008d00000094000000950000009c0000009d000000a2000000a3000000aa000000ab000000b2000000b3000000ba000000bb000000c2000000c3000000ca000000cb000000d2000000d3000000da000000db000000e2000000e3000000ea000000eb000000f2000000f3000000fa000000fb00000002010000030100000a0100000b01000012010000130100001a0100001b01000022010000230100002a0100002b01000032010000330100003a0100003b010000
  - m_Vertices: 06000000070000000e0000000f00000016000000170000001e0000001f00000026000000270000002e0000002f00000036000000370000003e0000003f00000046000000470000004e0000004f00000056000000570000005e0000005f00000066000000670000006e0000006f00000076000000770000007e0000007f00000086000000870000008e0000008f00000096000000970000009e0000009f000000a6000000a7000000ae000000af000000b6000000b7000000be000000bf000000c6000000c7000000ce000000cf000000d6000000d7000000de000000df000000e6000000e7000000ee000000ef000000f6000000f7000000fe000000ff00000006010000070100000e0100000f01000016010000170100001e0100001f01000026010000270100002e0100002f01000036010000370100003e0100003f010000
  - m_Vertices: 0800000011000000a9000000b0000000
  - m_Vertices: 0a00000013000000ac000000b5000000
  - m_Vertices: 1000000019000000b1000000b8000000
  - m_Vertices: 120000001b000000b4000000bd000000
  - m_Vertices: 1800000021000000b9000000c0000000
  - m_Vertices: 1a00000023000000bc000000c5000000
  - m_Vertices: 2000000029000000c1000000c8000000
  - m_Vertices: 220000002b000000c4000000cd000000
  - m_Vertices: 2800000031000000c9000000d0000000
  - m_Vertices: 2a00000033000000cc000000d5000000
  - m_Vertices: 3000000039000000d1000000d8000000
  - m_Vertices: 320000003b000000d4000000dd000000
  - m_Vertices: 3800000041000000d9000000e0000000
  - m_Vertices: 3a00000043000000dc000000e5000000
  - m_Vertices: 4000000049000000e1000000e8000000
  - m_Vertices: 420000004b000000e4000000ed000000
  - m_Vertices: 4800000051000000e9000000f0000000
  - m_Vertices: 4a00000053000000ec000000f5000000
  - m_Vertices: 5000000059000000f1000000f8000000
  - m_Vertices: 520000005b000000f4000000fd000000
  - m_Vertices: 5800000061000000f900000000010000
  - m_Vertices: 5a00000063000000fc00000005010000
  - m_Vertices: 60000000690000000101000008010000
  - m_Vertices: 620000006b000000040100000d010000
  - m_Vertices: 68000000710000000901000010010000
  - m_Vertices: 6a000000730000000c01000015010000
  - m_Vertices: 70000000790000001101000018010000
  - m_Vertices: 720000007b000000140100001d010000
  - m_Vertices: 78000000810000001901000020010000
  - m_Vertices: 7a000000830000001c01000025010000
  - m_Vertices: 80000000890000002101000028010000
  - m_Vertices: 820000008b000000240100002d010000
  - m_Vertices: 88000000910000002901000030010000
  - m_Vertices: 8a000000930000002c01000035010000
  - m_Vertices: 90000000990000003101000038010000
  - m_Vertices: 920000009b000000340100003d010000
  m_SharedTextures: []
  m_Positions:
  - {x: 0.95105654, y: -0.05, z: 0.309017}
  - {x: 1, y: -0.05, z: 0}
  - {x: 0.95105654, y: 0.05, z: 0.309017}
  - {x: 1, y: 0.05, z: 0}
  - {x: 0, y: -0.05, z: 0}
  - {x: 0, y: -0.05, z: 0}
  - {x: 0, y: 0.05, z: 0}
  - {x: 0, y: 0.05, z: 0}
  - {x: 0.809017, y: -0.05, z: 0.58778524}
  - {x: 0.95105654, y: -0.05, z: 0.309017}
  - {x: 0.809017, y: 0.05, z: 0.58778524}
  - {x: 0.95105654, y: 0.05, z: 0.309017}
  - {x: 0, y: -0.05, z: 0}
  - {x: 0, y: -0.05, z: 0}
  - {x: 0, y: 0.05, z: 0}
  - {x: 0, y: 0.05, z: 0}
  - {x: 0.5877853, y: -0.05, z: 0.809017}
  - {x: 0.809017, y: -0.05, z: 0.58778524}
  - {x: 0.5877853, y: 0.05, z: 0.809017}
  - {x: 0.809017, y: 0.05, z: 0.58778524}
  - {x: 0, y: -0.05, z: 0}
  - {x: 0, y: -0.05, z: 0}
  - {x: 0, y: 0.05, z: 0}
  - {x: 0, y: 0.05, z: 0}
  - {x: 0.30901697, y: -0.05, z: 0.95105654}
  - {x: 0.5877853, y: -0.05, z: 0.809017}
  - {x: 0.30901697, y: 0.05, z: 0.95105654}
  - {x: 0.5877853, y: 0.05, z: 0.809017}
  - {x: 0, y: -0.05, z: 0}
  - {x: 0, y: -0.05, z: 0}
  - {x: 0, y: 0.05, z: 0}
  - {x: 0, y: 0.05, z: 0}
  - {x: -0.00000004371139, y: -0.05, z: 1}
  - {x: 0.30901697, y: -0.05, z: 0.95105654}
  - {x: -0.00000004371139, y: 0.05, z: 1}
  - {x: 0.30901697, y: 0.05, z: 0.95105654}
  - {x: 0, y: -0.05, z: 0}
  - {x: 0, y: -0.05, z: 0}
  - {x: 0, y: 0.05, z: 0}
  - {x: 0, y: 0.05, z: 0}
  - {x: -0.30901694, y: -0.05, z: 0.95105654}
  - {x: -0.00000004371139, y: -0.05, z: 1}
  - {x: -0.30901694, y: 0.05, z: 0.95105654}
  - {x: -0.00000004371139, y: 0.05, z: 1}
  - {x: 0, y: -0.05, z: 0}
  - {x: 0, y: -0.05, z: 0}
  - {x: 0, y: 0.05, z: 0}
  - {x: 0, y: 0.05, z: 0}
  - {x: -0.5877852, y: -0.05, z: 0.809017}
  - {x: -0.30901694, y: -0.05, z: 0.95105654}
  - {x: -0.5877852, y: 0.05, z: 0.809017}
  - {x: -0.30901694, y: 0.05, z: 0.95105654}
  - {x: 0, y: -0.05, z: 0}
  - {x: 0.000000059604645, y: -0.05, z: -0.000000059604645}
  - {x: 0, y: 0.05, z: 0}
  - {x: 0.000000059604645, y: 0.05, z: -0.000000059604645}
  - {x: -0.80901706, y: -0.05, z: 0.5877852}
  - {x: -0.5877852, y: -0.05, z: 0.809017}
  - {x: -0.80901706, y: 0.05, z: 0.5877852}
  - {x: -0.5877852, y: 0.05, z: 0.809017}
  - {x: 0.000000059604645, y: -0.05, z: -0.000000059604645}
  - {x: 0, y: -0.05, z: 0}
  - {x: 0.000000059604645, y: 0.05, z: -0.000000059604645}
  - {x: 0, y: 0.05, z: 0}
  - {x: -0.9510565, y: -0.05, z: 0.30901703}
  - {x: -0.80901706, y: -0.05, z: 0.5877852}
  - {x: -0.9510565, y: 0.05, z: 0.30901703}
  - {x: -0.80901706, y: 0.05, z: 0.5877852}
  - {x: 0, y: -0.05, z: 0}
  - {x: 0, y: -0.05, z: 0}
  - {x: 0, y: 0.05, z: 0}
  - {x: 0, y: 0.05, z: 0}
  - {x: -1, y: -0.05, z: -0.00000008742278}
  - {x: -0.9510565, y: -0.05, z: 0.30901703}
  - {x: -1, y: 0.05, z: -0.00000008742278}
  - {x: -0.9510565, y: 0.05, z: 0.30901703}
  - {x: 0, y: -0.05, z: 0}
  - {x: 0, y: -0.05, z: 0}
  - {x: 0, y: 0.05, z: 0}
  - {x: 0, y: 0.05, z: 0}
  - {x: -0.95105654, y: -0.05, z: -0.30901697}
  - {x: -1, y: -0.05, z: -0.00000008742278}
  - {x: -0.95105654, y: 0.05, z: -0.30901697}
  - {x: -1, y: 0.05, z: -0.00000008742278}
  - {x: 0, y: -0.05, z: 0}
  - {x: 0, y: -0.05, z: 0}
  - {x: 0, y: 0.05, z: 0}
  - {x: 0, y: 0.05, z: 0}
  - {x: -0.80901706, y: -0.05, z: -0.5877851}
  - {x: -0.95105654, y: -0.05, z: -0.30901697}
  - {x: -0.80901706, y: 0.05, z: -0.5877851}
  - {x: -0.95105654, y: 0.05, z: -0.30901697}
  - {x: 0, y: -0.05, z: 0}
  - {x: 0, y: -0.05, z: 0}
  - {x: 0, y: 0.05, z: 0}
  - {x: 0, y: 0.05, z: 0}
  - {x: -0.5877854, y: -0.05, z: -0.8090168}
  - {x: -0.80901706, y: -0.05, z: -0.5877851}
  - {x: -0.5877854, y: 0.05, z: -0.8090168}
  - {x: -0.80901706, y: 0.05, z: -0.5877851}
  - {x: 0, y: -0.05, z: 0}
  - {x: 0.000000059604645, y: -0.05, z: 0.000000059604645}
  - {x: 0, y: 0.05, z: 0}
  - {x: 0.000000059604645, y: 0.05, z: 0.000000059604645}
  - {x: -0.3090171, y: -0.05, z: -0.9510565}
  - {x: -0.5877854, y: -0.05, z: -0.8090168}
  - {x: -0.3090171, y: 0.05, z: -0.9510565}
  - {x: -0.5877854, y: 0.05, z: -0.8090168}
  - {x: 0.000000059604645, y: -0.05, z: 0.000000059604645}
  - {x: 0, y: -0.05, z: 0}
  - {x: 0.000000059604645, y: 0.05, z: 0.000000059604645}
  - {x: 0, y: 0.05, z: 0}
  - {x: 0.000000011924881, y: -0.05, z: -1}
  - {x: -0.3090171, y: -0.05, z: -0.9510565}
  - {x: 0.000000011924881, y: 0.05, z: -1}
  - {x: -0.3090171, y: 0.05, z: -0.9510565}
  - {x: 0, y: -0.05, z: 0}
  - {x: 0, y: -0.05, z: 0}
  - {x: 0, y: 0.05, z: 0}
  - {x: 0, y: 0.05, z: 0}
  - {x: 0.30901712, y: -0.05, z: -0.9510565}
  - {x: 0.000000011924881, y: -0.05, z: -1}
  - {x: 0.30901712, y: 0.05, z: -0.9510565}
  - {x: 0.000000011924881, y: 0.05, z: -1}
  - {x: 0, y: -0.05, z: 0}
  - {x: 0, y: -0.05, z: 0}
  - {x: 0, y: 0.05, z: 0}
  - {x: 0, y: 0.05, z: 0}
  - {x: 0.58778507, y: -0.05, z: -0.8090171}
  - {x: 0.30901712, y: -0.05, z: -0.9510565}
  - {x: 0.58778507, y: 0.05, z: -0.8090171}
  - {x: 0.30901712, y: 0.05, z: -0.9510565}
  - {x: 0, y: -0.05, z: 0}
  - {x: 0, y: -0.05, z: 0}
  - {x: 0, y: 0.05, z: 0}
  - {x: 0, y: 0.05, z: 0}
  - {x: 0.80901694, y: -0.05, z: -0.5877853}
  - {x: 0.58778507, y: -0.05, z: -0.8090171}
  - {x: 0.80901694, y: 0.05, z: -0.5877853}
  - {x: 0.58778507, y: 0.05, z: -0.8090171}
  - {x: 0, y: -0.05, z: 0}
  - {x: 0, y: -0.05, z: 0}
  - {x: 0, y: 0.05, z: 0}
  - {x: 0, y: 0.05, z: 0}
  - {x: 0.95105654, y: -0.05, z: -0.30901694}
  - {x: 0.80901694, y: -0.05, z: -0.5877853}
  - {x: 0.95105654, y: 0.05, z: -0.30901694}
  - {x: 0.80901694, y: 0.05, z: -0.5877853}
  - {x: 0, y: -0.05, z: 0}
  - {x: 0, y: -0.05, z: 0}
  - {x: 0, y: 0.05, z: 0}
  - {x: 0, y: 0.05, z: 0}
  - {x: 1, y: -0.05, z: 0}
  - {x: 0.95105654, y: -0.05, z: -0.30901694}
  - {x: 1, y: 0.05, z: 0}
  - {x: 0.95105654, y: 0.05, z: -0.30901694}
  - {x: 0, y: -0.05, z: 0}
  - {x: 0, y: -0.05, z: 0}
  - {x: 0, y: 0.05, z: 0}
  - {x: 0, y: 0.05, z: 0}
  - {x: 1, y: -0.05, z: 0}
  - {x: 0.95105654, y: -0.05, z: 0.309017}
  - {x: 0, y: -0.05, z: 0}
  - {x: 0, y: -0.05, z: 0}
  - {x: 0.95105654, y: 0.05, z: 0.309017}
  - {x: 1, y: 0.05, z: 0}
  - {x: 0, y: 0.05, z: 0}
  - {x: 0, y: 0.05, z: 0}
  - {x: 0.95105654, y: -0.05, z: 0.309017}
  - {x: 0.809017, y: -0.05, z: 0.58778524}
  - {x: 0, y: -0.05, z: 0}
  - {x: 0, y: -0.05, z: 0}
  - {x: 0.809017, y: 0.05, z: 0.58778524}
  - {x: 0.95105654, y: 0.05, z: 0.309017}
  - {x: 0, y: 0.05, z: 0}
  - {x: 0, y: 0.05, z: 0}
  - {x: 0.809017, y: -0.05, z: 0.58778524}
  - {x: 0.5877853, y: -0.05, z: 0.809017}
  - {x: 0, y: -0.05, z: 0}
  - {x: 0, y: -0.05, z: 0}
  - {x: 0.5877853, y: 0.05, z: 0.809017}
  - {x: 0.809017, y: 0.05, z: 0.58778524}
  - {x: 0, y: 0.05, z: 0}
  - {x: 0, y: 0.05, z: 0}
  - {x: 0.5877853, y: -0.05, z: 0.809017}
  - {x: 0.30901697, y: -0.05, z: 0.95105654}
  - {x: 0, y: -0.05, z: 0}
  - {x: 0, y: -0.05, z: 0}
  - {x: 0.30901697, y: 0.05, z: 0.95105654}
  - {x: 0.5877853, y: 0.05, z: 0.809017}
  - {x: 0, y: 0.05, z: 0}
  - {x: 0, y: 0.05, z: 0}
  - {x: 0.30901697, y: -0.05, z: 0.95105654}
  - {x: -0.00000004371139, y: -0.05, z: 1}
  - {x: 0, y: -0.05, z: 0}
  - {x: 0, y: -0.05, z: 0}
  - {x: -0.00000004371139, y: 0.05, z: 1}
  - {x: 0.30901697, y: 0.05, z: 0.95105654}
  - {x: 0, y: 0.05, z: 0}
  - {x: 0, y: 0.05, z: 0}
  - {x: -0.00000004371139, y: -0.05, z: 1}
  - {x: -0.30901694, y: -0.05, z: 0.95105654}
  - {x: 0, y: -0.05, z: 0}
  - {x: 0, y: -0.05, z: 0}
  - {x: -0.30901694, y: 0.05, z: 0.95105654}
  - {x: -0.00000004371139, y: 0.05, z: 1}
  - {x: 0, y: 0.05, z: 0}
  - {x: 0, y: 0.05, z: 0}
  - {x: -0.30901694, y: -0.05, z: 0.95105654}
  - {x: -0.5877852, y: -0.05, z: 0.809017}
  - {x: 0, y: -0.05, z: 0}
  - {x: 0.000000059604645, y: -0.05, z: -0.000000059604645}
  - {x: -0.5877852, y: 0.05, z: 0.809017}
  - {x: -0.30901694, y: 0.05, z: 0.95105654}
  - {x: 0.000000059604645, y: 0.05, z: -0.000000059604645}
  - {x: 0, y: 0.05, z: 0}
  - {x: -0.5877852, y: -0.05, z: 0.809017}
  - {x: -0.80901706, y: -0.05, z: 0.5877852}
  - {x: 0.000000059604645, y: -0.05, z: -0.000000059604645}
  - {x: 0, y: -0.05, z: 0}
  - {x: -0.80901706, y: 0.05, z: 0.5877852}
  - {x: -0.5877852, y: 0.05, z: 0.809017}
  - {x: 0, y: 0.05, z: 0}
  - {x: 0.000000059604645, y: 0.05, z: -0.000000059604645}
  - {x: -0.80901706, y: -0.05, z: 0.5877852}
  - {x: -0.9510565, y: -0.05, z: 0.30901703}
  - {x: 0, y: -0.05, z: 0}
  - {x: 0, y: -0.05, z: 0}
  - {x: -0.9510565, y: 0.05, z: 0.30901703}
  - {x: -0.80901706, y: 0.05, z: 0.5877852}
  - {x: 0, y: 0.05, z: 0}
  - {x: 0, y: 0.05, z: 0}
  - {x: -0.9510565, y: -0.05, z: 0.30901703}
  - {x: -1, y: -0.05, z: -0.00000008742278}
  - {x: 0, y: -0.05, z: 0}
  - {x: 0, y: -0.05, z: 0}
  - {x: -1, y: 0.05, z: -0.00000008742278}
  - {x: -0.9510565, y: 0.05, z: 0.30901703}
  - {x: 0, y: 0.05, z: 0}
  - {x: 0, y: 0.05, z: 0}
  - {x: -1, y: -0.05, z: -0.00000008742278}
  - {x: -0.95105654, y: -0.05, z: -0.30901697}
  - {x: 0, y: -0.05, z: 0}
  - {x: 0, y: -0.05, z: 0}
  - {x: -0.95105654, y: 0.05, z: -0.30901697}
  - {x: -1, y: 0.05, z: -0.00000008742278}
  - {x: 0, y: 0.05, z: 0}
  - {x: 0, y: 0.05, z: 0}
  - {x: -0.95105654, y: -0.05, z: -0.30901697}
  - {x: -0.80901706, y: -0.05, z: -0.5877851}
  - {x: 0, y: -0.05, z: 0}
  - {x: 0, y: -0.05, z: 0}
  - {x: -0.80901706, y: 0.05, z: -0.5877851}
  - {x: -0.95105654, y: 0.05, z: -0.30901697}
  - {x: 0, y: 0.05, z: 0}
  - {x: 0, y: 0.05, z: 0}
  - {x: -0.80901706, y: -0.05, z: -0.5877851}
  - {x: -0.5877854, y: -0.05, z: -0.8090168}
  - {x: 0, y: -0.05, z: 0}
  - {x: 0.000000059604645, y: -0.05, z: 0.000000059604645}
  - {x: -0.5877854, y: 0.05, z: -0.8090168}
  - {x: -0.80901706, y: 0.05, z: -0.5877851}
  - {x: 0.000000059604645, y: 0.05, z: 0.000000059604645}
  - {x: 0, y: 0.05, z: 0}
  - {x: -0.5877854, y: -0.05, z: -0.8090168}
  - {x: -0.3090171, y: -0.05, z: -0.9510565}
  - {x: 0.000000059604645, y: -0.05, z: 0.000000059604645}
  - {x: 0, y: -0.05, z: 0}
  - {x: -0.3090171, y: 0.05, z: -0.9510565}
  - {x: -0.5877854, y: 0.05, z: -0.8090168}
  - {x: 0, y: 0.05, z: 0}
  - {x: 0.000000059604645, y: 0.05, z: 0.000000059604645}
  - {x: -0.3090171, y: -0.05, z: -0.9510565}
  - {x: 0.000000011924881, y: -0.05, z: -1}
  - {x: 0, y: -0.05, z: 0}
  - {x: 0, y: -0.05, z: 0}
  - {x: 0.000000011924881, y: 0.05, z: -1}
  - {x: -0.3090171, y: 0.05, z: -0.9510565}
  - {x: 0, y: 0.05, z: 0}
  - {x: 0, y: 0.05, z: 0}
  - {x: 0.000000011924881, y: -0.05, z: -1}
  - {x: 0.30901712, y: -0.05, z: -0.9510565}
  - {x: 0, y: -0.05, z: 0}
  - {x: 0, y: -0.05, z: 0}
  - {x: 0.30901712, y: 0.05, z: -0.9510565}
  - {x: 0.000000011924881, y: 0.05, z: -1}
  - {x: 0, y: 0.05, z: 0}
  - {x: 0, y: 0.05, z: 0}
  - {x: 0.30901712, y: -0.05, z: -0.9510565}
  - {x: 0.58778507, y: -0.05, z: -0.8090171}
  - {x: 0, y: -0.05, z: 0}
  - {x: 0, y: -0.05, z: 0}
  - {x: 0.58778507, y: 0.05, z: -0.8090171}
  - {x: 0.30901712, y: 0.05, z: -0.9510565}
  - {x: 0, y: 0.05, z: 0}
  - {x: 0, y: 0.05, z: 0}
  - {x: 0.58778507, y: -0.05, z: -0.8090171}
  - {x: 0.80901694, y: -0.05, z: -0.5877853}
  - {x: 0, y: -0.05, z: 0}
  - {x: 0, y: -0.05, z: 0}
  - {x: 0.80901694, y: 0.05, z: -0.5877853}
  - {x: 0.58778507, y: 0.05, z: -0.8090171}
  - {x: 0, y: 0.05, z: 0}
  - {x: 0, y: 0.05, z: 0}
  - {x: 0.80901694, y: -0.05, z: -0.5877853}
  - {x: 0.95105654, y: -0.05, z: -0.30901694}
  - {x: 0, y: -0.05, z: 0}
  - {x: 0, y: -0.05, z: 0}
  - {x: 0.95105654, y: 0.05, z: -0.30901694}
  - {x: 0.80901694, y: 0.05, z: -0.5877853}
  - {x: 0, y: 0.05, z: 0}
  - {x: 0, y: 0.05, z: 0}
  - {x: 0.95105654, y: -0.05, z: -0.30901694}
  - {x: 1, y: -0.05, z: 0}
  - {x: 0, y: -0.05, z: 0}
  - {x: 0, y: -0.05, z: 0}
  - {x: 1, y: 0.05, z: 0}
  - {x: 0.95105654, y: 0.05, z: -0.30901694}
  - {x: 0, y: 0.05, z: 0}
  - {x: 0, y: 0.05, z: 0}
  m_Textures0:
  - {x: 0.15643455, y: -0.05}
  - {x: -0.15643439, y: -0.05}
  - {x: 0.15643455, y: 0.05}
  - {x: -0.15643439, y: 0.05}
  - {x: 0, y: 0}
  - {x: 0, y: 0}
  - {x: 0, y: 0}
  - {x: 0, y: 0}
  - {x: 0.15643439, y: -0.05}
  - {x: -0.15643454, y: -0.05}
  - {x: 0.15643439, y: 0.05}
  - {x: -0.15643454, y: 0.05}
  - {x: 0, y: 0}
  - {x: 0, y: 0}
  - {x: 0, y: 0}
  - {x: 0, y: 0}
  - {x: 0.15643457, y: -0.05}
  - {x: -0.15643436, y: -0.05}
  - {x: 0.15643457, y: 0.05}
  - {x: -0.15643436, y: 0.05}
  - {x: 0, y: 0}
  - {x: 0, y: 0}
  - {x: 0, y: 0}
  - {x: 0, y: 0}
  - {x: 0.15643443, y: -0.05}
  - {x: -0.15643458, y: -0.05}
  - {x: 0.15643443, y: 0.05}
  - {x: -0.15643458, y: 0.05}
  - {x: 0, y: 0}
  - {x: 0, y: 0}
  - {x: 0, y: 0}
  - {x: 0, y: 0}
  - {x: 0.15643443, y: -0.05}
  - {x: -0.15643452, y: -0.05}
  - {x: 0.15643443, y: 0.05}
  - {x: -0.15643452, y: 0.05}
  - {x: 0, y: 0}
  - {x: 0, y: 0}
  - {x: 0, y: 0}
  - {x: 0, y: 0}
  - {x: 0.15643445, y: -0.05}
  - {x: -0.15643439, y: -0.05}
  - {x: 0.15643445, y: 0.05}
  - {x: -0.15643439, y: 0.05}
  - {x: 0, y: 0}
  - {x: 0, y: 0}
  - {x: 0, y: 0}
  - {x: 0, y: 0}
  - {x: 0.15643434, y: -0.05}
  - {x: -0.1564346, y: -0.05}
  - {x: 0.15643434, y: 0.05}
  - {x: -0.1564346, y: 0.05}
  - {x: 0, y: 0}
  - {x: 0.000000059604645, y: -0.000000059604645}
  - {x: 0, y: 0}
  - {x: 0.000000059604645, y: -0.000000059604645}
  - {x: 0.15643468, y: -0.05}
  - {x: -0.1564344, y: -0.05}
  - {x: 0.15643468, y: 0.05}
  - {x: -0.1564344, y: 0.05}
  - {x: 0.000000059604645, y: -0.000000059604645}
  - {x: 0, y: 0}
  - {x: 0.000000059604645, y: -0.000000059604645}
  - {x: 0, y: 0}
  - {x: 0.1564343, y: -0.05}
  - {x: -0.15643449, y: -0.05}
  - {x: 0.1564343, y: 0.05}
  - {x: -0.15643449, y: 0.05}
  - {x: 0, y: 0}
  - {x: 0, y: 0}
  - {x: 0, y: 0}
  - {x: 0, y: 0}
  - {x: 0.15643461, y: -0.05}
  - {x: -0.15643446, y: -0.05}
  - {x: 0.15643461, y: 0.05}
  - {x: -0.15643446, y: 0.05}
  - {x: 0, y: 0}
  - {x: 0, y: 0}
  - {x: 0, y: 0}
  - {x: 0, y: 0}
  - {x: 0.15643446, y: -0.05}
  - {x: -0.15643436, y: -0.05}
  - {x: 0.15643446, y: 0.05}
  - {x: -0.15643436, y: 0.05}
  - {x: 0, y: 0}
  - {x: 0, y: 0}
  - {x: 0, y: 0}
  - {x: 0, y: 0}
  - {x: 0.15643428, y: -0.05}
  - {x: -0.15643454, y: -0.05}
  - {x: 0.15643428, y: 0.05}
  - {x: -0.15643454, y: 0.05}
  - {x: 0, y: 0}
  - {x: 0, y: 0}
  - {x: 0, y: 0}
  - {x: 0, y: 0}
  - {x: 0.15643439, y: -0.05}
  - {x: -0.15643443, y: -0.05}
  - {x: 0.15643439, y: 0.05}
  - {x: -0.15643443, y: 0.05}
  - {x: 0, y: 0}
  - {x: 0.000000059604645, y: 0.000000059604645}
  - {x: 0, y: 0}
  - {x: 0.000000059604645, y: 0.000000059604645}
  - {x: 0.15643461, y: -0.05}
  - {x: -0.15643445, y: -0.05}
  - {x: 0.15643461, y: 0.05}
  - {x: -0.15643445, y: 0.05}
  - {x: 0.000000059604645, y: 0.000000059604645}
  - {x: 0, y: 0}
  - {x: 0.000000059604645, y: 0.000000059604645}
  - {x: 0, y: 0}
  - {x: 0.15643455, y: -0.05}
  - {x: -0.1564345, y: -0.05}
  - {x: 0.15643455, y: 0.05}
  - {x: -0.1564345, y: 0.05}
  - {x: 0, y: 0}
  - {x: 0, y: 0}
  - {x: 0, y: 0}
  - {x: 0, y: 0}
  - {x: 0.15643455, y: -0.05}
  - {x: -0.1564345, y: -0.05}
  - {x: 0.15643455, y: 0.05}
  - {x: -0.1564345, y: 0.05}
  - {x: 0, y: 0}
  - {x: 0, y: 0}
  - {x: 0, y: 0}
  - {x: 0, y: 0}
  - {x: 0.15643425, y: -0.05}
  - {x: -0.15643433, y: -0.05}
  - {x: 0.15643425, y: 0.05}
  - {x: -0.15643433, y: 0.05}
  - {x: 0, y: 0}
  - {x: 0, y: 0}
  - {x: 0, y: 0}
  - {x: 0, y: 0}
  - {x: 0.15643452, y: -0.05}
  - {x: -0.15643457, y: -0.05}
  - {x: 0.15643452, y: 0.05}
  - {x: -0.15643457, y: 0.05}
  - {x: 0, y: 0}
  - {x: 0, y: 0}
  - {x: 0, y: 0}
  - {x: 0, y: 0}
  - {x: 0.15643457, y: -0.05}
  - {x: -0.15643449, y: -0.05}
  - {x: 0.15643457, y: 0.05}
  - {x: -0.15643449, y: 0.05}
  - {x: 0, y: 0}
  - {x: 0, y: 0}
  - {x: 0, y: 0}
  - {x: 0, y: 0}
  - {x: 0.15643442, y: -0.05}
  - {x: -0.15643446, y: -0.05}
  - {x: 0.15643442, y: 0.05}
  - {x: -0.15643446, y: 0.05}
  - {x: 0, y: 0}
  - {x: 0, y: 0}
  - {x: 0, y: 0}
  - {x: 0, y: 0}
  - {x: -1, y: 0}
  - {x: -0.95105654, y: 0.309017}
  - {x: 0, y: 0}
  - {x: 0, y: 0}
  - {x: 0.95105654, y: 0.309017}
  - {x: 1, y: 0}
  - {x: 0, y: 0}
  - {x: 0, y: 0}
  - {x: -0.95105654, y: 0.309017}
  - {x: -0.809017, y: 0.58778524}
  - {x: 0, y: 0}
  - {x: 0, y: 0}
  - {x: 0.809017, y: 0.58778524}
  - {x: 0.95105654, y: 0.309017}
  - {x: 0, y: 0}
  - {x: 0, y: 0}
  - {x: -0.809017, y: 0.58778524}
  - {x: -0.5877853, y: 0.809017}
  - {x: 0, y: 0}
  - {x: 0, y: 0}
  - {x: 0.5877853, y: 0.809017}
  - {x: 0.809017, y: 0.58778524}
  - {x: 0, y: 0}
  - {x: 0, y: 0}
  - {x: -0.5877853, y: 0.809017}
  - {x: -0.30901697, y: 0.95105654}
  - {x: 0, y: 0}
  - {x: 0, y: 0}
  - {x: 0.30901697, y: 0.95105654}
  - {x: 0.5877853, y: 0.809017}
  - {x: 0, y: 0}
  - {x: 0, y: 0}
  - {x: -0.30901697, y: 0.95105654}
  - {x: 0.00000004371139, y: 1}
  - {x: 0, y: 0}
  - {x: 0, y: 0}
  - {x: -0.00000004371139, y: 1}
  - {x: 0.30901697, y: 0.95105654}
  - {x: 0, y: 0}
  - {x: 0, y: 0}
  - {x: 0.00000004371139, y: 1}
  - {x: 0.30901694, y: 0.95105654}
  - {x: 0, y: 0}
  - {x: 0, y: 0}
  - {x: -0.30901694, y: 0.95105654}
  - {x: -0.00000004371139, y: 1}
  - {x: 0, y: 0}
  - {x: 0, y: 0}
  - {x: 0.30901694, y: 0.95105654}
  - {x: 0.5877852, y: 0.809017}
  - {x: 0, y: 0}
  - {x: -0.000000059604645, y: -0.000000059604645}
  - {x: -0.5877852, y: 0.809017}
  - {x: -0.30901694, y: 0.95105654}
  - {x: 0.000000059604645, y: -0.000000059604645}
  - {x: 0, y: 0}
  - {x: 0.5877852, y: 0.809017}
  - {x: 0.80901706, y: 0.5877852}
  - {x: -0.000000059604645, y: -0.000000059604645}
  - {x: 0, y: 0}
  - {x: -0.80901706, y: 0.5877852}
  - {x: -0.5877852, y: 0.809017}
  - {x: 0, y: 0}
  - {x: 0.000000059604645, y: -0.000000059604645}
  - {x: 0.80901706, y: 0.5877852}
  - {x: 0.9510565, y: 0.30901703}
  - {x: 0, y: 0}
  - {x: 0, y: 0}
  - {x: -0.9510565, y: 0.30901703}
  - {x: -0.80901706, y: 0.5877852}
  - {x: 0, y: 0}
  - {x: 0, y: 0}
  - {x: 0.9510565, y: 0.30901703}
  - {x: 1, y: -0.00000008742278}
  - {x: 0, y: 0}
  - {x: 0, y: 0}
  - {x: -1, y: -0.00000008742278}
  - {x: -0.9510565, y: 0.30901703}
  - {x: 0, y: 0}
  - {x: 0, y: 0}
  - {x: 1, y: -0.00000008742278}
  - {x: 0.95105654, y: -0.30901697}
  - {x: 0, y: 0}
  - {x: 0, y: 0}
  - {x: -0.95105654, y: -0.30901697}
  - {x: -1, y: -0.00000008742278}
  - {x: 0, y: 0}
  - {x: 0, y: 0}
  - {x: 0.95105654, y: -0.30901697}
  - {x: 0.80901706, y: -0.5877851}
  - {x: 0, y: 0}
  - {x: 0, y: 0}
  - {x: -0.80901706, y: -0.5877851}
  - {x: -0.95105654, y: -0.30901697}
  - {x: 0, y: 0}
  - {x: 0, y: 0}
  - {x: 0.80901706, y: -0.5877851}
  - {x: 0.5877854, y: -0.8090168}
  - {x: 0, y: 0}
  - {x: -0.000000059604645, y: 0.000000059604645}
  - {x: -0.5877854, y: -0.8090168}
  - {x: -0.80901706, y: -0.5877851}
  - {x: 0.000000059604645, y: 0.000000059604645}
  - {x: 0, y: 0}
  - {x: 0.5877854, y: -0.8090168}
  - {x: 0.3090171, y: -0.9510565}
  - {x: -0.000000059604645, y: 0.000000059604645}
  - {x: 0, y: 0}
  - {x: -0.3090171, y: -0.9510565}
  - {x: -0.5877854, y: -0.8090168}
  - {x: 0, y: 0}
  - {x: 0.000000059604645, y: 0.000000059604645}
  - {x: 0.3090171, y: -0.9510565}
  - {x: -0.000000011924881, y: -1}
  - {x: 0, y: 0}
  - {x: 0, y: 0}
  - {x: 0.000000011924881, y: -1}
  - {x: -0.3090171, y: -0.9510565}
  - {x: 0, y: 0}
  - {x: 0, y: 0}
  - {x: -0.000000011924881, y: -1}
  - {x: -0.30901712, y: -0.9510565}
  - {x: 0, y: 0}
  - {x: 0, y: 0}
  - {x: 0.30901712, y: -0.9510565}
  - {x: 0.000000011924881, y: -1}
  - {x: 0, y: 0}
  - {x: 0, y: 0}
  - {x: -0.30901712, y: -0.9510565}
  - {x: -0.58778507, y: -0.8090171}
  - {x: 0, y: 0}
  - {x: 0, y: 0}
  - {x: 0.58778507, y: -0.8090171}
  - {x: 0.30901712, y: -0.9510565}
  - {x: 0, y: 0}
  - {x: 0, y: 0}
  - {x: -0.58778507, y: -0.8090171}
  - {x: -0.80901694, y: -0.5877853}
  - {x: 0, y: 0}
  - {x: 0, y: 0}
  - {x: 0.80901694, y: -0.5877853}
  - {x: 0.58778507, y: -0.8090171}
  - {x: 0, y: 0}
  - {x: 0, y: 0}
  - {x: -0.80901694, y: -0.5877853}
  - {x: -0.95105654, y: -0.30901694}
  - {x: 0, y: 0}
  - {x: 0, y: 0}
  - {x: 0.95105654, y: -0.30901694}
  - {x: 0.80901694, y: -0.5877853}
  - {x: 0, y: 0}
  - {x: 0, y: 0}
  - {x: -0.95105654, y: -0.30901694}
  - {x: -1, y: 0}
  - {x: 0, y: 0}
  - {x: 0, y: 0}
  - {x: 1, y: 0}
  - {x: 0.95105654, y: -0.30901694}
  - {x: 0, y: 0}
  - {x: 0, y: 0}
  m_Textures2: []
  m_Textures3: []
  m_Tangents:
  - {x: -0.30901703, y: 0, z: 0.9510565, w: -1}
  - {x: 0.000000015086906, y: 0, z: 1, w: -1}
  - {x: -0.30901703, y: 0, z: 0.9510565, w: -1}
  - {x: 0.000000015086906, y: 0, z: 1, w: -1}
  - {x: -1, y: 0, z: 0, w: 1}
  - {x: -1, y: 0, z: 0, w: 1}
  - {x: -1, y: 0, z: 0, w: 1}
  - {x: -1, y: 0, z: 0, w: 1}
  - {x: -0.58778524, y: 0, z: 0.80901706, w: -1}
  - {x: -0.309017, y: 0, z: 0.9510565, w: -1}
  - {x: -0.58778524, y: 0, z: 0.80901706, w: -1}
  - {x: -0.309017, y: 0, z: 0.9510565, w: -1}
  - {x: -1, y: 0, z: 0, w: 1}
  - {x: -1, y: 0, z: 0, w: 1}
  - {x: -1, y: 0, z: 0, w: 1}
  - {x: -1, y: 0, z: 0, w: 1}
  - {x: -0.80901694, y: 0, z: 0.5877853, w: -1}
  - {x: -0.5877852, y: 0, z: 0.80901706, w: -1}
  - {x: -0.80901694, y: 0, z: 0.5877853, w: -1}
  - {x: -0.5877852, y: 0, z: 0.80901706, w: -1}
  - {x: -1, y: 0, z: 0, w: 1}
  - {x: -1, y: 0, z: 0, w: 1}
  - {x: -1, y: 0, z: 0, w: 1}
  - {x: -1, y: 0, z: 0, w: 1}
  - {x: -0.95105654, y: 0, z: 0.3090169, w: -1}
  - {x: -0.809017, y: 0, z: 0.5877853, w: -1}
  - {x: -0.95105654, y: 0, z: 0.3090169, w: -1}
  - {x: -0.809017, y: 0, z: 0.5877853, w: -1}
  - {x: -1, y: 0, z: 0, w: 1}
  - {x: -1, y: 0, z: 0, w: 1}
  - {x: -1, y: 0, z: 0, w: 1}
  - {x: -1, y: 0, z: 0, w: 1}
  - {x: -1, y: 0, z: -0.000000030173812, w: -1}
  - {x: -0.95105654, y: 0, z: 0.30901694, w: -1}
  - {x: -1, y: 0, z: -0.000000030173812, w: -1}
  - {x: -0.95105654, y: 0, z: 0.30901694, w: -1}
  - {x: -1, y: 0, z: 0, w: 1}
  - {x: -1, y: 0, z: 0, w: 1}
  - {x: -1, y: 0, z: 0, w: 1}
  - {x: -1, y: 0, z: 0, w: 1}
  - {x: -0.9510565, y: 0, z: -0.30901703, w: -1}
  - {x: -1, y: 0, z: -0.000000015086906, w: -1}
  - {x: -0.9510565, y: 0, z: -0.30901703, w: -1}
  - {x: -1, y: 0, z: -0.000000015086906, w: -1}
  - {x: -1, y: 0, z: 0, w: 1}
  - {x: -1, y: 0, z: 0, w: 1}
  - {x: -1, y: 0, z: 0, w: 1}
  - {x: -1, y: 0, z: 0, w: 1}
  - {x: -0.80901706, y: 0, z: -0.58778524, w: -1}
  - {x: -0.9510565, y: 0, z: -0.309017, w: -1}
  - {x: -0.80901706, y: 0, z: -0.58778524, w: -1}
  - {x: -0.9510565, y: 0, z: -0.309017, w: -1}
  - {x: -1, y: 0, z: 0, w: 1}
  - {x: -1, y: 0, z: 0, w: 1}
  - {x: -1, y: 0, z: 0, w: 1}
  - {x: -1, y: 0, z: 0, w: 1}
  - {x: -0.5877853, y: 0, z: -0.809017, w: -1}
  - {x: -0.80901706, y: 0, z: -0.5877852, w: -1}
  - {x: -0.5877853, y: 0, z: -0.809017, w: -1}
  - {x: -0.80901706, y: 0, z: -0.5877852, w: -1}
  - {x: -1, y: 0, z: 0, w: 1}
  - {x: -1, y: 0, z: 0, w: 1}
  - {x: -1, y: 0, z: 0, w: 1}
  - {x: -1, y: 0, z: 0, w: 1}
  - {x: -0.30901697, y: 0, z: -0.95105654, w: -1}
  - {x: -0.58778524, y: 0, z: -0.809017, w: -1}
  - {x: -0.30901697, y: 0, z: -0.95105654, w: -1}
  - {x: -0.58778524, y: 0, z: -0.809017, w: -1}
  - {x: -1, y: 0, z: 0, w: 1}
  - {x: -1, y: 0, z: 0, w: 1}
  - {x: -1, y: 0, z: 0, w: 1}
  - {x: -1, y: 0, z: 0, w: 1}
  - {x: -0.000000045260716, y: 0, z: -1, w: -1}
  - {x: -0.30901694, y: 0, z: -0.95105654, w: -1}
  - {x: -0.000000045260716, y: 0, z: -1, w: -1}
  - {x: -0.30901694, y: 0, z: -0.95105654, w: -1}
  - {x: -1, y: 0, z: 0, w: 1}
  - {x: -1, y: 0, z: 0, w: 1}
  - {x: -1, y: 0, z: 0, w: 1}
  - {x: -1, y: 0, z: 0, w: 1}
  - {x: 0.30901703, y: 0, z: -0.9510565, w: -1}
  - {x: -0.000000030173812, y: 0, z: -1, w: -1}
  - {x: 0.30901703, y: 0, z: -0.9510565, w: -1}
  - {x: -0.000000030173812, y: 0, z: -1, w: -1}
  - {x: -1, y: 0, z: 0, w: 1}
  - {x: -1, y: 0, z: 0, w: 1}
  - {x: -1, y: 0, z: 0, w: 1}
  - {x: -1, y: 0, z: 0, w: 1}
  - {x: 0.58778524, y: 0, z: -0.80901706, w: -1}
  - {x: 0.309017, y: 0, z: -0.9510565, w: -1}
  - {x: 0.58778524, y: 0, z: -0.80901706, w: -1}
  - {x: 0.309017, y: 0, z: -0.9510565, w: -1}
  - {x: -1, y: 0, z: 0, w: 1}
  - {x: -1, y: 0, z: 0, w: 1}
  - {x: -1, y: 0, z: 0, w: 1}
  - {x: -1, y: 0, z: 0, w: 1}
  - {x: 0.8090168, y: 0, z: -0.5877855, w: -1}
  - {x: 0.5877852, y: 0, z: -0.8090171, w: -1}
  - {x: 0.8090168, y: 0, z: -0.5877855, w: -1}
  - {x: 0.5877852, y: 0, z: -0.8090171, w: -1}
  - {x: -1, y: 0, z: 0, w: 1}
  - {x: -1, y: 0, z: 0, w: 1}
  - {x: -1, y: 0, z: 0, w: 1}
  - {x: -1, y: 0, z: 0, w: 1}
  - {x: 0.9510565, y: 0, z: -0.30901715, w: -1}
  - {x: 0.8090168, y: 0, z: -0.5877855, w: -1}
  - {x: 0.9510565, y: 0, z: -0.30901715, w: -1}
  - {x: 0.8090168, y: 0, z: -0.5877855, w: -1}
  - {x: -1, y: 0, z: 0, w: 1}
  - {x: -1, y: 0, z: 0, w: 1}
  - {x: -1, y: 0, z: 0, w: 1}
  - {x: -1, y: 0, z: 0, w: 1}
  - {x: 1, y: 0, z: -0.000000015086906, w: -1}
  - {x: 0.9510565, y: 0, z: -0.30901718, w: -1}
  - {x: 1, y: 0, z: -0.000000015086906, w: -1}
  - {x: 0.9510565, y: 0, z: -0.30901718, w: -1}
  - {x: -1, y: 0, z: 0, w: 1}
  - {x: -1, y: 0, z: 0, w: 1}
  - {x: -1, y: 0, z: 0, w: 1}
  - {x: -1, y: 0, z: 0, w: 1}
  - {x: 0.9510565, y: 0, z: 0.30901703, w: -1}
  - {x: 1, y: 0, z: -0.000000015086906, w: -1}
  - {x: 0.9510565, y: 0, z: 0.30901703, w: -1}
  - {x: 1, y: 0, z: -0.000000015086906, w: -1}
  - {x: -1, y: 0, z: 0, w: 1}
  - {x: -1, y: 0, z: 0, w: 1}
  - {x: -1, y: 0, z: 0, w: 1}
  - {x: -1, y: 0, z: 0, w: 1}
  - {x: 0.80901706, y: 0, z: 0.5877852, w: -1}
  - {x: 0.9510565, y: 0, z: 0.309017, w: -1}
  - {x: 0.80901706, y: 0, z: 0.5877852, w: -1}
  - {x: 0.9510565, y: 0, z: 0.309017, w: -1}
  - {x: -1, y: 0, z: 0, w: 1}
  - {x: -1, y: 0, z: 0, w: 1}
  - {x: -1, y: 0, z: 0, w: 1}
  - {x: -1, y: 0, z: 0, w: 1}
  - {x: 0.5877853, y: 0, z: 0.809017, w: -1}
  - {x: 0.8090171, y: 0, z: 0.5877852, w: -1}
  - {x: 0.5877853, y: 0, z: 0.809017, w: -1}
  - {x: 0.8090171, y: 0, z: 0.5877852, w: -1}
  - {x: -1, y: 0, z: 0, w: 1}
  - {x: -1, y: 0, z: 0, w: 1}
  - {x: -1, y: 0, z: 0, w: 1}
  - {x: -1, y: 0, z: 0, w: 1}
  - {x: 0.30901703, y: 0, z: 0.9510565, w: -1}
  - {x: 0.5877853, y: 0, z: 0.809017, w: -1}
  - {x: 0.30901703, y: 0, z: 0.9510565, w: -1}
  - {x: 0.5877853, y: 0, z: 0.809017, w: -1}
  - {x: -1, y: 0, z: 0, w: 1}
  - {x: -1, y: 0, z: 0, w: 1}
  - {x: -1, y: 0, z: 0, w: 1}
  - {x: -1, y: 0, z: 0, w: 1}
  - {x: 0.000000015086906, y: 0, z: 1, w: -1}
  - {x: 0.309017, y: 0, z: 0.9510565, w: -1}
  - {x: 0.000000015086906, y: 0, z: 1, w: -1}
  - {x: 0.309017, y: 0, z: 0.9510565, w: -1}
  - {x: -1, y: 0, z: 0, w: 1}
  - {x: -1, y: 0, z: 0, w: 1}
  - {x: -1, y: 0, z: 0, w: 1}
  - {x: -1, y: 0, z: 0, w: 1}
  - {x: -1, y: 0, z: 0, w: -1}
  - {x: 1, y: 0, z: 0, w: 1}
  - {x: 1, y: 0, z: 0, w: 1}
  - {x: -0, y: 1, z: 0, w: 1}
  - {x: 1, y: 0, z: 0, w: -1}
  - {x: -1, y: 0, z: 0, w: 1}
  - {x: -1, y: 0, z: 0, w: 1}
  - {x: -0, y: 1, z: 0, w: 1}
  - {x: -1, y: 0, z: 0, w: -1}
  - {x: 1, y: 0, z: 0, w: 1}
  - {x: 1, y: 0, z: 0, w: 1}
  - {x: -0, y: 1, z: 0, w: 1}
  - {x: 1, y: 0, z: 0, w: -1}
  - {x: -1, y: 0, z: 0, w: 1}
  - {x: -1, y: 0, z: 0, w: 1}
  - {x: -0, y: 1, z: 0, w: 1}
  - {x: -1, y: 0, z: 0, w: -1}
  - {x: 1, y: 0, z: 0, w: 1}
  - {x: 1, y: 0, z: 0, w: 1}
  - {x: -0, y: 1, z: 0, w: 1}
  - {x: 1, y: 0, z: 0, w: -1}
  - {x: -1, y: 0, z: 0, w: 1}
  - {x: -1, y: 0, z: 0, w: 1}
  - {x: -0, y: 1, z: 0, w: 1}
  - {x: -1, y: 0, z: 0, w: -1}
  - {x: 1, y: 0, z: 0, w: 1}
  - {x: 1, y: 0, z: 0, w: 1}
  - {x: -0, y: 1, z: 0, w: 1}
  - {x: 1, y: 0, z: 0, w: -1}
  - {x: -1, y: 0, z: 0, w: 1}
  - {x: -1, y: 0, z: 0, w: 1}
  - {x: -0, y: 1, z: 0, w: 1}
  - {x: -1, y: 0, z: 0, w: -1}
  - {x: 1, y: 0, z: 0, w: 1}
  - {x: 1, y: 0, z: 0, w: 1}
  - {x: -0, y: 1, z: 0, w: 1}
  - {x: 1, y: 0, z: 0, w: -1}
  - {x: -1, y: 0, z: 0, w: 1}
  - {x: -1, y: 0, z: 0, w: 1}
  - {x: -0, y: 1, z: 0, w: 1}
  - {x: -1, y: 0, z: 0, w: -1}
  - {x: 1, y: 0, z: 0, w: 1}
  - {x: 1, y: 0, z: 0, w: 1}
  - {x: -0, y: 1, z: 0, w: 1}
  - {x: 1, y: 0, z: 0, w: -1}
  - {x: -1, y: 0, z: 0, w: 1}
  - {x: -1, y: 0, z: 0, w: 1}
  - {x: -0, y: 1, z: 0, w: 1}
  - {x: -1, y: 0, z: 0, w: -1}
  - {x: -1, y: 0, z: 0, w: -1}
  - {x: -1, y: 0, z: 0, w: -1}
  - {x: -0, y: 1, z: 0, w: 1}
  - {x: 1, y: 0, z: 0, w: -1}
  - {x: 1, y: 0, z: 0, w: -1}
  - {x: 1, y: 0, z: 0, w: -1}
  - {x: -0, y: 1, z: 0, w: 1}
  - {x: -1, y: 0, z: 0, w: -1}
  - {x: -1, y: 0, z: 0, w: -1}
  - {x: -1, y: 0, z: 0, w: -1}
  - {x: -0, y: 1, z: 0, w: 1}
  - {x: 1, y: 0, z: 0, w: -1}
  - {x: 1, y: 0, z: 0, w: -1}
  - {x: 1, y: 0, z: 0, w: -1}
  - {x: -0, y: 1, z: 0, w: 1}
  - {x: -1, y: 0, z: 0, w: -1}
  - {x: 1, y: 0, z: 0, w: 1}
  - {x: 1, y: 0, z: 0, w: 1}
  - {x: -0, y: 1, z: 0, w: 1}
  - {x: 1, y: 0, z: 0, w: -1}
  - {x: -1, y: 0, z: 0, w: 1}
  - {x: -1, y: 0, z: 0, w: 1}
  - {x: -0, y: 1, z: 0, w: 1}
  - {x: -1, y: 0, z: 0, w: -1}
  - {x: 1, y: 0, z: 0, w: 1}
  - {x: 1, y: 0, z: 0, w: 1}
  - {x: -0, y: 1, z: 0, w: 1}
  - {x: 1, y: 0, z: 0, w: -1}
  - {x: -1, y: 0, z: 0, w: 1}
  - {x: -1, y: 0, z: 0, w: 1}
  - {x: -0, y: 1, z: 0, w: 1}
  - {x: -1, y: 0, z: 0, w: -1}
  - {x: 1, y: 0, z: 0, w: 1}
  - {x: 1, y: 0, z: 0, w: 1}
  - {x: -0, y: 1, z: 0, w: 1}
  - {x: 1, y: 0, z: 0, w: -1}
  - {x: -1, y: 0, z: 0, w: 1}
  - {x: -1, y: 0, z: 0, w: 1}
  - {x: -0, y: 1, z: 0, w: 1}
  - {x: -1, y: 0, z: 0, w: -1}
  - {x: 1, y: 0, z: 0, w: 1}
  - {x: 1, y: 0, z: 0, w: 1}
  - {x: -0, y: 1, z: 0, w: 1}
  - {x: 1, y: 0, z: 0, w: -1}
  - {x: -1, y: 0, z: 0, w: 1}
  - {x: -1, y: 0, z: 0, w: 1}
  - {x: -0, y: 1, z: 0, w: 1}
  - {x: -1, y: 0, z: 0, w: -1}
  - {x: -1, y: 0, z: 0, w: -1}
  - {x: -1, y: 0, z: 0, w: -1}
  - {x: -0, y: 1, z: 0, w: 1}
  - {x: 1, y: 0, z: 0, w: -1}
  - {x: 1, y: 0, z: 0, w: -1}
  - {x: 1, y: 0, z: 0, w: -1}
  - {x: -0, y: 1, z: 0, w: 1}
  - {x: -1, y: 0, z: 0, w: -1}
  - {x: -1, y: 0, z: 0, w: -1}
  - {x: -1, y: 0, z: 0, w: -1}
  - {x: -0, y: 1, z: 0, w: 1}
  - {x: 1, y: 0, z: 0, w: -1}
  - {x: 1, y: 0, z: 0, w: -1}
  - {x: 1, y: 0, z: 0, w: -1}
  - {x: -0, y: 1, z: 0, w: 1}
  - {x: -1, y: 0, z: 0, w: -1}
  - {x: 1, y: 0, z: 0, w: 1}
  - {x: 1, y: 0, z: 0, w: 1}
  - {x: -0, y: 1, z: 0, w: 1}
  - {x: 1, y: 0, z: 0, w: -1}
  - {x: -1, y: 0, z: 0, w: 1}
  - {x: -1, y: 0, z: 0, w: 1}
  - {x: -0, y: 1, z: 0, w: 1}
  - {x: -1, y: 0, z: 0, w: -1}
  - {x: 1, y: 0, z: 0, w: 1}
  - {x: 1, y: 0, z: 0, w: 1}
  - {x: -0, y: 1, z: 0, w: 1}
  - {x: 1, y: 0, z: 0, w: -1}
  - {x: -1, y: 0, z: 0, w: 1}
  - {x: -1, y: 0, z: 0, w: 1}
  - {x: -0, y: 1, z: 0, w: 1}
  - {x: -1, y: 0, z: 0, w: -1}
  - {x: 1, y: 0, z: 0, w: 1}
  - {x: 1, y: 0, z: 0, w: 1}
  - {x: -0, y: 1, z: 0, w: 1}
  - {x: 1, y: 0, z: 0, w: -1}
  - {x: -1, y: 0, z: 0, w: 1}
  - {x: -1, y: 0, z: 0, w: 1}
  - {x: -0, y: 1, z: 0, w: 1}
  - {x: -1, y: 0, z: 0, w: -1}
  - {x: 1, y: 0, z: 0, w: 1}
  - {x: 1, y: 0, z: 0, w: 1}
  - {x: -0, y: 1, z: 0, w: 1}
  - {x: 1, y: 0, z: 0, w: -1}
  - {x: -1, y: 0, z: 0, w: 1}
  - {x: -1, y: 0, z: 0, w: 1}
  - {x: -0, y: 1, z: 0, w: 1}
  - {x: -1, y: 0, z: 0, w: -1}
  - {x: 1, y: 0, z: 0, w: 1}
  - {x: 1, y: 0, z: 0, w: 1}
  - {x: -0, y: 1, z: 0, w: 1}
  - {x: 1, y: 0, z: 0, w: -1}
  - {x: -1, y: 0, z: 0, w: 1}
  - {x: -1, y: 0, z: 0, w: 1}
  - {x: -0, y: 1, z: 0, w: 1}
  - {x: -1, y: 0, z: 0, w: -1}
  - {x: 1, y: 0, z: 0, w: 1}
  - {x: 1, y: 0, z: 0, w: 1}
  - {x: -0, y: 1, z: 0, w: 1}
  - {x: 1, y: 0, z: 0, w: -1}
  - {x: -1, y: 0, z: 0, w: 1}
  - {x: -1, y: 0, z: 0, w: 1}
  - {x: -0, y: 1, z: 0, w: 1}
  m_Colors: []
  m_UnwrapParameters:
    m_HardAngle: 88
    m_PackMargin: 20
    m_AngleError: 8
    m_AreaError: 15
  m_PreserveMeshAssetOnDestroy: 0
  assetGuid: 
  m_Mesh: {fileID: 0}
  m_VersionIndex: 1548
  m_IsSelectable: 1
  m_SelectedFaces: 
  m_SelectedEdges: []
  m_SelectedVertices: 
--- !u!114 &5109358426806172934
MonoBehaviour:
  m_ObjectHideFlags: 0
  m_CorrespondingSourceObject: {fileID: 0}
  m_PrefabInstance: {fileID: 0}
  m_PrefabAsset: {fileID: 0}
  m_GameObject: {fileID: 5109358426806172930}
  m_Enabled: 1
  m_EditorHideFlags: 0
  m_Script: {fileID: 11500000, guid: 1ca002da428252441b92f28d83c8a65f, type: 3}
  m_Name: 
  m_EditorClassIdentifier: 
  m_Shape:
    rid: 1863730057726918684
  m_Size: {x: 2, y: 0.1, z: 2}
  m_Rotation: {x: 0, y: 0, z: 0, w: 1}
  m_PivotLocation: 0
  m_PivotPosition: {x: 0, y: 0, z: 0}
  m_UnmodifiedMeshVersion: 1545
  m_ShapeBox:
    m_Center: {x: 0, y: 0, z: 0}
    m_Extent: {x: 1, y: 0.05, z: 1}
  references:
    version: 2
    RefIds:
    - rid: 1863730057726918684
      type: {class: Pipe, ns: UnityEngine.ProBuilder.Shapes, asm: Unity.ProBuilder}
      data:
        m_Thickness: 1
        m_NumberOfSides: 20
        m_HeightCuts: 0
        m_Smooth: 1
--- !u!23 &5109358426806172935
MeshRenderer:
  m_ObjectHideFlags: 0
  m_CorrespondingSourceObject: {fileID: 0}
  m_PrefabInstance: {fileID: 0}
  m_PrefabAsset: {fileID: 0}
  m_GameObject: {fileID: 5109358426806172930}
  m_Enabled: 1
  m_CastShadows: 1
  m_ReceiveShadows: 1
  m_DynamicOccludee: 1
  m_StaticShadowCaster: 0
  m_MotionVectors: 1
  m_LightProbeUsage: 1
  m_ReflectionProbeUsage: 1
  m_RayTracingMode: 2
  m_RayTraceProcedural: 0
  m_RenderingLayerMask: 1
  m_RendererPriority: 0
  m_Materials:
  - {fileID: 2100000, guid: e0c8c8112258e4347b5525304d9f0d0d, type: 2}
  m_StaticBatchInfo:
    firstSubMesh: 0
    subMeshCount: 0
  m_StaticBatchRoot: {fileID: 0}
  m_ProbeAnchor: {fileID: 0}
  m_LightProbeVolumeOverride: {fileID: 0}
  m_ScaleInLightmap: 1
  m_ReceiveGI: 1
  m_PreserveUVs: 0
  m_IgnoreNormalsForChartDetection: 0
  m_ImportantGI: 0
  m_StitchLightmapSeams: 1
  m_SelectedEditorRenderState: 2
  m_MinimumChartSize: 4
  m_AutoUVMaxDistance: 0.5
  m_AutoUVMaxAngle: 89
  m_LightmapParameters: {fileID: 0}
  m_SortingLayerID: 0
  m_SortingLayer: 0
  m_SortingOrder: 0
  m_AdditionalVertexStreams: {fileID: 0}
--- !u!33 &5109358426806172932
MeshFilter:
  m_ObjectHideFlags: 0
  m_CorrespondingSourceObject: {fileID: 0}
  m_PrefabInstance: {fileID: 0}
  m_PrefabAsset: {fileID: 0}
  m_GameObject: {fileID: 5109358426806172930}
  m_Mesh: {fileID: 0}
--- !u!64 &5109358426806172933
MeshCollider:
  m_ObjectHideFlags: 0
  m_CorrespondingSourceObject: {fileID: 0}
  m_PrefabInstance: {fileID: 0}
  m_PrefabAsset: {fileID: 0}
  m_GameObject: {fileID: 5109358426806172930}
  m_Material: {fileID: 0}
  m_IsTrigger: 0
  m_Enabled: 1
  serializedVersion: 4
  m_Convex: 0
  m_CookingOptions: 30
  m_Mesh: {fileID: 0}
